Etiqueta,Classe de distorção,SPEAR,RMSE
1,Ruído gaussiano (intensidade),0.9675,0.0278
2,Ruído gaussiano (cor),0.9633,0.0206
3,Ruído espacialmente correlacionado,0.9788,0.0194
4,Ruído por máscara,0.9562,0.0243
5,Ruído de alta frequência,0.9694,0.0524
6,Ruído por impulsos,0.9551,0.0309
7,Ruído quantizado,0.9489,0.0795
8,Borramento gaussiano,0.969,0.0864
9,Filtragem de ruído,0.9486,0.1899
10,Compressão JPEG,0.9582,0.2167
11,Compressão JPEG2000,0.9607,0.2924
12,Erro de transmissão JPEG,0.9327,0.235
13,Erro de transmissão JPEG2000,0.9059,0.1175
14,Ruído de padrão não-centralizado,0.8064,0.3846
15,Distorção em blocos,0.8724,0.643
16,Mudança de intensidade,0.3544,0.7898
17,Mudança de contraste,0.4939,1.5432
