imgfile,distortion,mos,mssim,ssim,vif,psnrhvs,psnrhvsm
i01_01_1.bmp,1,5.9706,0.9893,0.989,0.7398,34.8449,41.1078
i01_01_2.bmp,1,5.4167,0.9793,0.9786,0.6297,31.7643,36.9804
i01_01_3.bmp,1,4.5556,0.9628,0.9598,0.5221,28.8181,33.2438
i01_01_4.bmp,1,4.3143,0.9338,0.9254,0.4151,25.8261,29.516
i01_02_1.bmp,2,6.1429,0.9971,0.9966,0.8981,40.7432,49.327
i01_02_2.bmp,2,5.7941,0.9943,0.9939,0.8289,37.7701,45.1351
i01_02_3.bmp,2,5.4444,0.9891,0.9888,0.7376,34.7968,41.0589
i01_02_4.bmp,2,4.9143,0.9793,0.9788,0.6299,31.7957,37.0799
i01_03_1.bmp,3,4.8056,0.9729,0.9575,0.5856,29.8991,32.8132
i01_03_2.bmp,3,4.0286,0.9497,0.9222,0.4768,26.9068,29.2787
i01_03_3.bmp,3,3.5278,0.9098,0.861,0.3713,23.8505,25.7686
i01_03_4.bmp,3,2.75,0.8483,0.7729,0.2851,20.8886,22.514
i01_04_1.bmp,4,6.0286,0.9976,0.9988,0.9259,39.7169,55.5534
i01_04_2.bmp,4,5.9714,0.9952,0.9981,0.874,36.6665,50.4726
i01_04_3.bmp,4,5.7429,0.9913,0.997,0.8089,33.8749,45.5057
i01_04_4.bmp,4,4.8286,0.983,0.9943,0.7137,30.65,39.8804
i01_05_1.bmp,5,5.8571,0.9932,0.9961,0.8604,39.3453,49.6962
i01_05_2.bmp,5,5.6111,0.9812,0.9892,0.7161,34.4088,43.0648
i01_05_3.bmp,5,4.8571,0.9523,0.9686,0.5361,29.3799,36.2149
i01_05_4.bmp,5,3.5429,0.8879,0.9077,0.3549,24.126,29.1215
i01_06_1.bmp,6,4.4706,0.989,0.9877,0.7648,34.6287,39.5926
i01_06_2.bmp,6,4.2286,0.9807,0.9782,0.6523,31.7757,36.3018
i01_06_3.bmp,6,4.0294,0.9615,0.9571,0.5352,28.7655,32.6264
i01_06_4.bmp,6,3.3056,0.9315,0.9194,0.4126,25.5015,28.6129
i01_07_1.bmp,7,4.7778,0.9842,0.9809,0.6818,32.1631,35.7126
i01_07_2.bmp,7,4.1111,0.9789,0.9726,0.5846,29.9208,33.3224
i01_07_3.bmp,7,3.2,0.9588,0.946,0.4745,26.0795,28.5659
i01_07_4.bmp,7,2.1667,0.9237,0.9017,0.3804,22.5177,24.1505
i01_08_1.bmp,8,4.7353,0.9844,0.9859,0.6721,29.4013,33.9621
i01_08_2.bmp,8,3.9143,0.9467,0.9453,0.451,24.491,27.2349
i01_08_3.bmp,8,3.2778,0.852,0.8163,0.2306,20.566,22.2072
i01_08_4.bmp,8,2.1765,0.6846,0.5848,0.0716,17.7454,18.7754
i01_09_1.bmp,9,5.7143,0.9822,0.9793,0.5953,31.8145,36.9643
i01_09_2.bmp,9,4.9143,0.9501,0.9387,0.4128,27.1423,30.4999
i01_09_3.bmp,9,3.0,0.8744,0.8361,0.243,22.8876,24.9531
i01_09_4.bmp,9,1.2,0.6811,0.6078,0.0891,18.6703,19.7929
i01_10_1.bmp,10,5.9444,0.9904,0.9939,0.7488,36.5612,48.0118
i01_10_2.bmp,10,5.1667,0.9719,0.9741,0.5061,30.0807,37.1821
i01_10_3.bmp,10,3.3056,0.9107,0.8894,0.2678,23.6901,26.5845
i01_10_4.bmp,10,1.4571,0.8213,0.7674,0.1468,20.1713,21.8076
i01_11_1.bmp,11,5.8,0.9923,0.9895,0.6512,32.7072,39.8024
i01_11_2.bmp,11,5.1667,0.9835,0.9741,0.4726,28.3218,32.9245
i01_11_3.bmp,11,3.5556,0.9158,0.8764,0.2289,22.9223,25.2536
i01_11_4.bmp,11,1.0,0.6504,0.5564,0.0426,18.1425,19.218
i01_12_1.bmp,12,6.4242,0.9808,0.9731,0.8593,30.7445,33.0316
i01_12_2.bmp,12,4.3056,0.9516,0.9384,0.6741,26.3517,28.4348
i01_12_3.bmp,12,4.1111,0.9125,0.8854,0.4884,23.4562,25.64
i01_12_4.bmp,12,3.3889,0.8477,0.8098,0.229,20.8516,22.9225
i01_13_1.bmp,13,4.1714,0.9681,0.9501,0.7118,26.8351,28.9936
i01_13_2.bmp,13,3.8235,0.9037,0.8564,0.3895,23.6809,25.3013
i01_13_3.bmp,13,3.5143,0.8829,0.8128,0.3339,21.9934,23.7833
i01_13_4.bmp,13,3.1765,0.9227,0.8687,0.3764,21.6696,24.1214
i01_14_1.bmp,14,6.3429,0.9834,0.9756,0.8312,28.1091,29.8075
i01_14_2.bmp,14,6.3429,0.9529,0.9376,0.7185,24.1717,25.2902
i01_14_3.bmp,14,5.6944,0.9139,0.8889,0.599,22.3044,23.3218
i01_14_4.bmp,14,4.6111,0.8646,0.8411,0.514,20.2385,21.074
i01_15_1.bmp,15,2.5143,0.8663,0.9098,0.8449,20.7319,21.1554
i01_15_2.bmp,15,2.9706,0.9049,0.9495,0.9222,21.5818,21.884
i01_15_3.bmp,15,3.8571,0.9375,0.9705,0.9574,21.852,22.0801
i01_15_4.bmp,15,4.2778,0.9517,0.9816,0.9788,22.1797,22.357
i01_16_1.bmp,16,5.9412,0.9994,0.9956,1.0,25.3211,25.3266
i01_16_2.bmp,16,5.6286,0.9968,0.9808,0.996,19.318,19.3196
i01_16_3.bmp,16,5.8889,0.9957,0.9736,1.0,15.7782,15.7786
i01_16_4.bmp,16,4.8571,0.9831,0.9143,0.9469,13.389,13.3939
i01_17_1.bmp,17,6.5,0.9857,0.9842,1.0945,27.065,28.4377
i01_17_2.bmp,17,4.9714,0.9666,0.967,0.8544,25.1067,26.151
i01_17_3.bmp,17,6.1944,0.9442,0.9378,1.1631,20.2897,21.2174
i01_17_4.bmp,17,3.9722,0.8383,0.8493,0.6717,19.0881,19.7119
i02_01_1.bmp,1,6.3,0.972,0.9732,0.6789,34.81,38.5755
i02_01_2.bmp,1,5.6563,0.9476,0.9498,0.5578,31.8326,35.1075
i02_01_3.bmp,1,4.9375,0.9065,0.9073,0.4366,28.8176,31.6721
i02_01_4.bmp,1,4.0645,0.8448,0.8365,0.3259,25.9013,28.4687
i02_02_1.bmp,2,6.1724,0.9926,0.9919,0.8712,40.783,46.0858
i02_02_2.bmp,2,6.4688,0.9854,0.9857,0.7854,37.829,42.3204
i02_02_3.bmp,2,5.4839,0.9721,0.9732,0.6792,34.8383,38.6034
i02_02_4.bmp,2,5.0313,0.9477,0.9496,0.5517,31.8147,35.0285
i02_03_1.bmp,3,4.8387,0.931,0.9053,0.5023,30.0106,31.7221
i02_03_2.bmp,3,4.0333,0.8753,0.8318,0.3851,26.9517,28.4127
i02_03_3.bmp,3,3.6452,0.7874,0.7179,0.2811,23.8464,25.1406
i02_03_4.bmp,3,3.0938,0.6772,0.584,0.2001,21.0074,22.2028
i02_04_1.bmp,4,6.1935,0.9948,0.9973,0.9136,40.0725,51.0235
i02_04_2.bmp,4,6.0,0.9898,0.996,0.8564,36.9232,45.782
i02_04_3.bmp,4,5.2813,0.9802,0.9931,0.771,33.5619,40.2629
i02_04_4.bmp,4,4.5484,0.9611,0.9858,0.651,29.9838,34.8069
i02_05_1.bmp,5,7.0,0.9829,0.9904,0.8263,39.3345,46.5224
i02_05_2.bmp,5,5.8065,0.9538,0.9741,0.6538,34.4027,40.2093
i02_05_3.bmp,5,4.875,0.8896,0.9266,0.4509,29.4054,34.0702
i02_05_4.bmp,5,3.5,0.771,0.8049,0.2666,24.1319,27.5049
i02_06_1.bmp,6,4.5938,0.9696,0.9658,0.6621,32.889,35.8732
i02_06_2.bmp,6,4.2188,0.9397,0.9324,0.5082,29.6053,32.3485
i02_06_3.bmp,6,4.0,0.8868,0.8736,0.3737,26.5845,29.0434
i02_06_4.bmp,6,3.5,0.8081,0.7822,0.2626,23.5539,25.7106
i02_07_1.bmp,7,5.7188,0.971,0.9696,0.614,33.2109,35.19
i02_07_2.bmp,7,4.2581,0.9527,0.9518,0.5836,30.5423,32.207
i02_07_3.bmp,7,3.6452,0.9443,0.9396,0.4526,29.375,30.9151
i02_07_4.bmp,7,2.9063,0.8933,0.8891,0.3492,23.2193,23.866
i02_08_1.bmp,8,5.6774,0.9911,0.9919,0.7452,35.1006,39.0143
i02_08_2.bmp,8,4.7097,0.9715,0.9734,0.5255,30.2375,32.8235
i02_08_3.bmp,8,4.0,0.9271,0.9167,0.2743,26.1752,27.7536
i02_08_4.bmp,8,3.125,0.851,0.813,0.0998,23.0187,23.956
i02_09_1.bmp,9,5.6875,0.9669,0.9639,0.4722,33.5386,36.7109
i02_09_2.bmp,9,4.9063,0.9389,0.9315,0.3071,30.3122,32.632
i02_09_3.bmp,9,3.9032,0.8898,0.874,0.1684,26.909,28.4397
i02_09_4.bmp,9,2.2258,0.7969,0.7783,0.0764,21.1113,21.615
i02_10_1.bmp,10,6.125,0.9848,0.9876,0.719,38.1347,44.6325
i02_10_2.bmp,10,5.8065,0.9589,0.958,0.4344,32.353,35.8969
i02_10_3.bmp,10,3.4375,0.8969,0.8818,0.186,27.0706,28.7857
i02_10_4.bmp,10,2.5625,0.8328,0.8055,0.0894,24.1078,25.1505
i02_11_1.bmp,11,5.0625,0.9524,0.9388,0.3104,30.2604,32.8434
i02_11_2.bmp,11,2.9355,0.8617,0.8283,0.0895,25.509,26.8659
i02_11_3.bmp,11,1.2333,0.7218,0.7092,0.019,21.9551,22.6987
i02_11_4.bmp,11,0.0,0.6059,0.6545,0.0077,19.1848,19.5941
i02_12_1.bmp,12,4.5161,0.9512,0.9466,0.6272,30.1469,32.2673
i02_12_2.bmp,12,3.3226,0.8384,0.789,0.26,21.0984,21.6024
i02_12_3.bmp,12,2.8125,0.731,0.6852,0.0898,20.2313,21.0717
i02_12_4.bmp,12,1.871,0.6187,0.5876,0.0622,17.9197,18.5957
i02_13_1.bmp,13,4.3548,0.936,0.8933,0.5914,27.7981,29.3045
i02_13_2.bmp,13,3.7333,0.801,0.7322,0.4214,24.3945,25.301
i02_13_3.bmp,13,2.7188,0.6744,0.5539,0.1734,20.4739,21.6384
i02_13_4.bmp,13,3.6774,0.8363,0.7263,0.553,17.8197,18.9839
i02_14_1.bmp,14,6.2581,0.9877,0.9839,0.8187,31.8852,33.6617
i02_14_2.bmp,14,5.5625,0.9661,0.9567,0.7036,28.6644,29.9664
i02_14_3.bmp,14,5.1875,0.9497,0.9395,0.6399,27.3734,28.4454
i02_14_4.bmp,14,4.1563,0.9141,0.9018,0.5427,25.3362,26.2029
i02_15_1.bmp,15,3.25,0.8744,0.9216,0.7783,22.5533,22.8825
i02_15_2.bmp,15,3.6875,0.9143,0.9537,0.8636,22.8463,23.1305
i02_15_3.bmp,15,4.125,0.9439,0.9722,0.9305,22.3312,22.5385
i02_15_4.bmp,15,4.4194,0.9642,0.9847,0.9619,24.2732,24.4211
i02_16_1.bmp,16,6.2813,0.999,0.9926,0.9956,25.3292,25.3371
i02_16_2.bmp,16,5.5,0.9941,0.9697,0.9785,19.354,19.3572
i02_16_3.bmp,16,5.4063,0.9928,0.9599,0.9829,15.7997,15.8024
i02_16_4.bmp,16,5.1333,0.9652,0.8695,0.8446,13.7081,13.7155
i02_17_1.bmp,17,6.5313,0.9903,0.99,1.098,31.7219,32.6727
i02_17_2.bmp,17,5.2188,0.9773,0.9806,0.8183,28.7445,29.4038
i02_17_3.bmp,17,5.1333,0.9637,0.9658,1.1617,25.7364,26.4113
i02_17_4.bmp,17,4.2188,0.8936,0.9187,0.601,22.7309,23.1281
i03_01_1.bmp,1,5.5,0.9657,0.9703,0.6947,34.8998,38.1639
i03_01_2.bmp,1,5.0667,0.9368,0.9437,0.5741,31.854,34.7829
i03_01_3.bmp,1,4.6207,0.8911,0.8953,0.4547,28.7893,31.4641
i03_01_4.bmp,1,4.2414,0.8254,0.821,0.353,25.8419,28.3241
i03_02_1.bmp,2,6.3333,0.9906,0.9908,0.8713,40.6745,44.7139
i03_02_2.bmp,2,5.7,0.9816,0.9835,0.7896,37.7171,41.2962
i03_02_3.bmp,2,5.3214,0.9652,0.9697,0.6829,34.7156,37.8994
i03_02_4.bmp,2,4.9655,0.9364,0.9435,0.5647,31.6935,34.5412
i03_03_1.bmp,3,4.3793,0.9226,0.8958,0.5071,30.0415,31.5869
i03_03_2.bmp,3,3.9655,0.8623,0.8144,0.3977,26.9366,28.3096
i03_03_3.bmp,3,3.6,0.7771,0.7016,0.2989,23.9578,25.2143
i03_03_4.bmp,3,3.069,0.6743,0.5689,0.2281,20.9706,22.1526
i03_04_1.bmp,4,6.2333,0.9952,0.9971,0.8677,38.6438,46.4678
i03_04_2.bmp,4,5.4667,0.9912,0.9959,0.8031,35.6841,42.2587
i03_04_3.bmp,4,4.9333,0.9834,0.9931,0.714,32.4012,37.6158
i03_04_4.bmp,4,4.1429,0.9685,0.986,0.6003,28.9368,32.8871
i03_05_1.bmp,5,6.3667,0.9783,0.989,0.8306,39.2326,44.8949
i03_05_2.bmp,5,5.6,0.9436,0.9705,0.6667,34.3044,39.2344
i03_05_3.bmp,5,4.9,0.8716,0.9167,0.4748,29.2681,33.5491
i03_05_4.bmp,5,3.8333,0.7483,0.7841,0.2971,24.0225,27.549
i03_06_1.bmp,6,4.8966,0.969,0.97,0.6959,34.2744,37.3131
i03_06_2.bmp,6,4.5517,0.9434,0.9433,0.5582,31.1963,34.0597
i03_06_3.bmp,6,4.0357,0.8975,0.8948,0.4351,28.0728,30.597
i03_06_4.bmp,6,3.9,0.8286,0.8176,0.3276,24.9301,27.1332
i03_07_1.bmp,7,4.6897,0.961,0.9614,0.6524,31.6215,32.7796
i03_07_2.bmp,7,4.0,0.9352,0.9392,0.5827,29.0188,30.0364
i03_07_3.bmp,7,3.8333,0.9276,0.9299,0.4966,26.1241,26.8115
i03_07_4.bmp,7,3.6207,0.8859,0.8812,0.4274,21.1466,21.5406
i03_08_1.bmp,8,5.7931,0.9954,0.995,0.764,35.0391,38.3534
i03_08_2.bmp,8,5.2414,0.9856,0.9847,0.5681,30.1041,32.454
i03_08_3.bmp,8,4.0,0.9618,0.9517,0.3426,25.9047,27.3771
i03_08_4.bmp,8,3.069,0.9153,0.8822,0.1659,22.5479,23.4051
i03_09_1.bmp,9,6.931,0.9859,0.9826,0.5677,36.1808,39.54
i03_09_2.bmp,9,5.5333,0.9717,0.9656,0.4197,32.3494,34.8776
i03_09_3.bmp,9,4.0345,0.9424,0.9315,0.2644,28.0797,29.7496
i03_09_4.bmp,9,2.1786,0.8693,0.8531,0.1388,21.9581,22.5588
i03_10_1.bmp,10,6.3929,0.9913,0.991,0.7303,39.4953,44.6321
i03_10_2.bmp,10,5.4138,0.9756,0.973,0.4805,33.7785,37.3139
i03_10_3.bmp,10,3.1667,0.9336,0.9209,0.245,27.8125,29.6936
i03_10_4.bmp,10,2.2667,0.8643,0.8425,0.1396,23.7167,24.682
i03_11_1.bmp,11,4.1379,0.9571,0.9437,0.2775,29.4524,31.7055
i03_11_2.bmp,11,2.8667,0.9041,0.8757,0.1328,25.1784,26.4654
i03_11_3.bmp,11,1.1379,0.7968,0.7672,0.047,21.2882,21.9503
i03_11_4.bmp,11,0.1667,0.6526,0.6908,0.0173,18.6644,19.0524
i03_12_1.bmp,12,4.3667,0.9566,0.946,0.5881,29.5556,31.4795
i03_12_2.bmp,12,3.1333,0.8652,0.8226,0.439,21.7469,22.1741
i03_12_3.bmp,12,3.1333,0.851,0.8021,0.2918,20.2823,20.922
i03_12_4.bmp,12,2.3333,0.8061,0.7455,0.1659,17.61,18.0062
i03_13_1.bmp,13,3.8,0.8839,0.8401,0.4238,27.338,28.6381
i03_13_2.bmp,13,3.9667,0.8915,0.8682,0.5076,27.3567,29.4175
i03_13_3.bmp,13,3.3448,0.6213,0.5118,0.3507,20.0104,20.6765
i03_13_4.bmp,13,2.4333,0.4302,0.3458,0.1726,15.8814,16.4246
i03_14_1.bmp,14,6.0345,0.9911,0.9887,0.7468,31.6956,33.6854
i03_14_2.bmp,14,5.1,0.9809,0.9722,0.6308,27.9008,29.2374
i03_14_3.bmp,14,4.2069,0.9696,0.9583,0.5594,26.5305,27.6455
i03_14_4.bmp,14,3.2,0.9448,0.9366,0.5034,24.6235,25.4318
i03_15_1.bmp,15,3.069,0.8738,0.9135,0.7354,22.1835,22.4844
i03_15_2.bmp,15,4.2333,0.9302,0.9544,0.8441,24.0444,24.3028
i03_15_3.bmp,15,4.3,0.944,0.9712,0.9154,23.8417,24.0368
i03_15_4.bmp,15,4.7931,0.953,0.9827,0.9578,23.3448,23.5087
i03_16_1.bmp,16,6.6,0.999,0.9932,0.976,25.4405,25.4613
i03_16_2.bmp,16,6.4333,0.9965,0.9749,0.9873,19.3961,19.3978
i03_16_3.bmp,16,6.4828,0.9915,0.9636,0.9148,15.9108,15.9216
i03_16_4.bmp,16,5.7586,0.9805,0.8885,0.9244,13.5216,13.5242
i03_17_1.bmp,17,7.2,0.9909,0.9893,1.0267,28.2689,28.6948
i03_17_2.bmp,17,5.5333,0.9769,0.9812,0.8189,24.9934,25.2951
i03_17_3.bmp,17,7.0667,0.9645,0.962,1.0477,21.6592,21.9306
i03_17_4.bmp,17,4.5333,0.8897,0.9222,0.6071,18.9773,19.1582
i04_01_1.bmp,1,5.4286,0.971,0.9737,0.6624,34.8359,38.5126
i04_01_2.bmp,1,4.9429,0.9463,0.9504,0.5396,31.8047,35.0222
i04_01_3.bmp,1,4.6176,0.9058,0.9095,0.4208,28.8535,31.712
i04_01_4.bmp,1,4.1429,0.8423,0.8376,0.3112,25.8434,28.381
i04_02_1.bmp,2,6.2857,0.9922,0.9919,0.8629,40.6834,45.8062
i04_02_2.bmp,2,5.6765,0.9848,0.9858,0.7729,37.7357,42.0524
i04_02_3.bmp,2,5.1471,0.9713,0.9738,0.6678,34.8343,38.5553
i04_02_4.bmp,2,4.6471,0.9457,0.9498,0.5322,31.7538,34.9262
i04_03_1.bmp,3,4.4412,0.934,0.9057,0.4748,29.9856,31.631
i04_03_2.bmp,3,3.9143,0.8786,0.8293,0.3571,26.868,28.2693
i04_03_3.bmp,3,3.3529,0.7998,0.7228,0.2609,23.9395,25.2092
i04_03_4.bmp,3,3.1176,0.6902,0.5832,0.1819,20.9451,22.1256
i04_04_1.bmp,4,6.2,0.9945,0.9974,0.9205,37.9977,43.392
i04_04_2.bmp,4,6.2424,0.9898,0.9964,0.8711,35.0622,39.5766
i04_04_3.bmp,4,5.6286,0.98,0.9938,0.7878,31.7413,35.4401
i04_04_4.bmp,4,4.9714,0.9608,0.9871,0.6644,28.3946,31.454
i04_05_1.bmp,5,6.1176,0.9819,0.9905,0.8193,39.3042,46.3628
i04_05_2.bmp,5,5.3235,0.9513,0.9745,0.6427,34.3758,40.1067
i04_05_3.bmp,5,4.5152,0.8851,0.9274,0.4395,29.3631,34.0122
i04_05_4.bmp,5,4.0588,0.7622,0.8036,0.2591,24.0595,27.6244
i04_06_1.bmp,6,4.7941,0.9705,0.9674,0.6548,32.9155,35.8446
i04_06_2.bmp,6,4.4118,0.9453,0.9395,0.5084,30.1946,32.9688
i04_06_3.bmp,6,4.0286,0.8958,0.8856,0.3771,27.0571,29.5269
i04_06_4.bmp,6,3.7647,0.8228,0.7998,0.2687,23.9316,26.0942
i04_07_1.bmp,7,4.0588,0.9633,0.9609,0.6433,32.0663,33.7293
i04_07_2.bmp,7,3.6765,0.9496,0.9445,0.5281,29.9443,31.3504
i04_07_3.bmp,7,3.1212,0.906,0.8953,0.4218,25.2841,26.1493
i04_07_4.bmp,7,2.8235,0.8272,0.807,0.3769,21.3768,22.1184
i04_08_1.bmp,8,6.2121,0.9944,0.9943,0.7971,36.5639,39.9772
i04_08_2.bmp,8,5.5714,0.9828,0.9827,0.6018,31.6266,33.8955
i04_08_3.bmp,8,4.9394,0.956,0.9458,0.3541,27.2954,28.6671
i04_08_4.bmp,8,3.7059,0.9077,0.8735,0.1596,23.7271,24.5196
i04_09_1.bmp,9,6.1471,0.9723,0.9682,0.4777,34.6116,37.4316
i04_09_2.bmp,9,5.4286,0.9515,0.9415,0.3347,31.7142,33.779
i04_09_3.bmp,9,4.0588,0.9164,0.8955,0.1986,28.0495,29.3756
i04_09_4.bmp,9,2.6286,0.8507,0.8261,0.1098,22.0762,22.5542
i04_10_1.bmp,10,6.1471,0.987,0.9885,0.7111,38.7292,44.5594
i04_10_2.bmp,10,5.2857,0.9658,0.9613,0.4393,32.9769,35.9735
i04_10_3.bmp,10,3.1765,0.9052,0.88,0.1934,27.486,28.8972
i04_10_4.bmp,10,1.8235,0.8314,0.7911,0.0968,23.7911,24.5779
i04_11_1.bmp,11,3.8182,0.9203,0.8956,0.175,28.2622,29.8276
i04_11_2.bmp,11,2.8286,0.8681,0.8287,0.0851,24.6204,25.5532
i04_11_3.bmp,11,1.7714,0.7555,0.737,0.0332,20.8789,21.3542
i04_11_4.bmp,11,0.0606,0.6216,0.6718,0.0132,18.505,18.788
i04_12_1.bmp,12,4.8857,0.9526,0.9384,0.543,28.1508,29.9756
i04_12_2.bmp,12,4.3429,0.9198,0.9029,0.3364,27.3312,29.222
i04_12_3.bmp,12,3.0286,0.8251,0.7562,0.262,19.5626,20.1557
i04_12_4.bmp,12,2.5882,0.7668,0.6847,0.1132,18.0162,18.471
i04_13_1.bmp,13,3.8571,0.8709,0.8228,0.3117,26.613,27.7112
i04_13_2.bmp,13,3.2857,0.7922,0.7103,0.2404,23.3492,24.2989
i04_13_3.bmp,13,3.7143,0.8285,0.7597,0.3192,21.1072,22.3874
i04_13_4.bmp,13,2.5152,0.5449,0.4319,0.1313,15.9885,16.6233
i04_14_1.bmp,14,6.2941,0.9923,0.9892,0.8451,34.3835,36.2247
i04_14_2.bmp,14,6.1143,0.9779,0.9685,0.7309,29.6538,30.7119
i04_14_3.bmp,14,4.5294,0.9687,0.956,0.6926,28.3006,29.2406
i04_14_4.bmp,14,3.7647,0.942,0.9258,0.5748,26.2801,27.0228
i04_15_1.bmp,15,2.4118,0.8969,0.9303,0.7788,24.1552,24.4137
i04_15_2.bmp,15,3.4706,0.9433,0.9607,0.8754,24.8188,25.0103
i04_15_3.bmp,15,4.0857,0.9675,0.978,0.9351,26.1645,26.3298
i04_15_4.bmp,15,4.5714,0.9709,0.9849,0.9663,24.8433,24.9967
i04_16_1.bmp,16,6.3333,0.9993,0.9932,0.9982,25.3234,25.3308
i04_16_2.bmp,16,6.2571,0.9955,0.9726,0.9813,19.3449,19.3532
i04_16_3.bmp,16,5.6857,0.9949,0.9646,0.9928,15.7868,15.7887
i04_16_4.bmp,16,5.7714,0.9708,0.8831,0.8593,13.5784,13.5868
i04_17_1.bmp,17,7.2059,0.9888,0.9881,1.1136,28.6895,29.0834
i04_17_2.bmp,17,5.1765,0.9745,0.9782,0.8086,26.3666,26.6901
i04_17_3.bmp,17,7.7143,0.9557,0.9566,1.1988,21.9476,22.2082
i04_17_4.bmp,17,4.3235,0.8801,0.9116,0.5835,20.3546,20.5452
i05_01_1.bmp,1,5.8788,0.993,0.9936,0.7494,34.8523,42.2259
i05_01_2.bmp,1,5.0323,0.987,0.988,0.6453,31.9227,38.2021
i05_01_3.bmp,1,4.5152,0.9764,0.9775,0.5382,28.9698,34.3316
i05_01_4.bmp,1,3.8387,0.9584,0.9572,0.4293,25.9931,30.4019
i05_02_1.bmp,2,5.5938,0.9982,0.9981,0.9001,40.6981,50.3055
i05_02_2.bmp,2,5.9697,0.9964,0.9966,0.8328,37.7179,46.218
i05_02_3.bmp,2,5.2424,0.993,0.9936,0.7457,34.7814,42.0659
i05_02_4.bmp,2,4.7742,0.9866,0.9876,0.6373,31.6951,37.7152
i05_03_1.bmp,3,4.6061,0.9859,0.9757,0.5974,30.0805,33.7207
i05_03_2.bmp,3,3.8182,0.9739,0.9555,0.4876,27.1118,30.0737
i05_03_3.bmp,3,3.5938,0.9515,0.9185,0.384,24.1435,26.5638
i05_03_4.bmp,3,2.7813,0.9163,0.8612,0.2938,21.1378,23.1116
i05_04_1.bmp,4,6.0,0.9984,0.9993,0.9222,39.2608,52.403
i05_04_2.bmp,4,5.625,0.9968,0.999,0.8664,36.0649,47.9905
i05_04_3.bmp,4,5.4375,0.9937,0.9981,0.7883,32.8794,42.973
i05_04_4.bmp,4,4.6875,0.9876,0.996,0.6845,29.5208,37.37
i05_05_1.bmp,5,6.0606,0.995,0.9977,0.8641,39.2439,50.3241
i05_05_2.bmp,5,5.3636,0.9865,0.9936,0.7226,34.2897,43.4662
i05_05_3.bmp,5,4.3333,0.9663,0.9805,0.542,29.1314,35.8379
i05_05_4.bmp,5,3.1563,0.9196,0.9375,0.3571,23.4899,27.6175
i05_06_1.bmp,6,4.3939,0.9918,0.9911,0.7275,33.1733,38.2919
i05_06_2.bmp,6,3.9394,0.9836,0.9825,0.6035,30.2183,34.9307
i05_06_3.bmp,6,3.5938,0.9693,0.9666,0.4836,26.9675,30.9189
i05_06_4.bmp,6,3.0323,0.9446,0.9368,0.3753,23.7112,26.8314
i05_07_1.bmp,7,5.5758,0.9916,0.9886,0.7116,33.0362,37.4068
i05_07_2.bmp,7,4.8182,0.982,0.9749,0.5824,29.2895,32.5908
i05_07_3.bmp,7,3.7813,0.9592,0.9421,0.4603,24.9288,27.2433
i05_07_4.bmp,7,3.0909,0.9316,0.9004,0.3749,21.3181,23.0883
i05_08_1.bmp,8,4.875,0.9898,0.9898,0.6791,28.6684,35.259
i05_08_2.bmp,8,3.8485,0.9643,0.9595,0.4663,23.4118,27.1653
i05_08_3.bmp,8,3.1212,0.8924,0.8522,0.2548,18.8,20.8302
i05_08_4.bmp,8,1.1515,0.7421,0.6262,0.0962,15.351,16.5196
i05_09_1.bmp,9,6.3125,0.9917,0.989,0.6589,32.6871,38.7396
i05_09_2.bmp,9,5.4242,0.9765,0.968,0.4828,27.7344,31.8806
i05_09_3.bmp,9,3.4688,0.9189,0.8855,0.2868,21.8104,24.2705
i05_09_4.bmp,9,1.6667,0.7563,0.663,0.1305,15.9497,17.05
i05_10_1.bmp,10,5.5625,0.9942,0.9964,0.7681,36.5714,48.1934
i05_10_2.bmp,10,4.6667,0.9825,0.9843,0.5298,29.9337,37.9859
i05_10_3.bmp,10,3.625,0.9439,0.9282,0.2925,23.071,26.8937
i05_10_4.bmp,10,1.8182,0.8771,0.8245,0.1689,18.9947,21.1291
i05_11_1.bmp,11,5.697,0.9956,0.9943,0.7061,33.3639,42.5829
i05_11_2.bmp,11,5.0323,0.99,0.9852,0.5367,28.9826,35.6775
i05_11_3.bmp,11,3.871,0.9668,0.9481,0.3477,24.413,28.3877
i05_11_4.bmp,11,2.5152,0.8861,0.8237,0.1637,19.2411,21.2976
i05_12_1.bmp,12,6.2121,0.9934,0.989,0.9456,29.6379,31.6493
i05_12_2.bmp,12,5.375,0.9791,0.9677,0.8563,26.3821,28.3814
i05_12_3.bmp,12,4.1875,0.916,0.8719,0.7207,19.3939,19.9176
i05_12_4.bmp,12,2.5938,0.8847,0.844,0.3746,19.0211,21.0471
i05_13_1.bmp,13,5.7188,0.9988,0.9991,0.9577,40.2527,47.9167
i05_13_2.bmp,13,3.9394,0.9705,0.9556,0.5844,26.5902,30.3246
i05_13_3.bmp,13,3.5938,0.9031,0.8593,0.3572,21.4689,23.079
i05_13_4.bmp,13,2.3438,0.8444,0.7473,0.2287,18.1953,19.8259
i05_14_1.bmp,14,6.1818,0.9878,0.9824,0.805,25.2012,27.0892
i05_14_2.bmp,14,6.3438,0.9628,0.9452,0.6882,21.1073,22.354
i05_14_3.bmp,14,5.5455,0.9373,0.912,0.5999,18.8727,19.9255
i05_14_4.bmp,14,4.6364,0.8808,0.8518,0.4946,16.5535,17.3695
i05_15_1.bmp,15,2.25,0.8917,0.9046,0.7809,17.8926,18.371
i05_15_2.bmp,15,3.1212,0.9378,0.9491,0.8788,19.7716,20.169
i05_15_3.bmp,15,3.4242,0.9637,0.9735,0.9343,21.989,22.357
i05_15_4.bmp,15,4.0,0.9821,0.9866,0.9689,25.0908,25.4603
i05_16_1.bmp,16,5.7188,0.9991,0.9931,0.9838,25.3967,25.4302
i05_16_2.bmp,16,5.9063,0.9944,0.9642,0.9274,19.5313,19.5555
i05_16_3.bmp,16,5.0,0.9932,0.9553,0.927,15.8872,15.9132
i05_16_4.bmp,16,5.0938,0.9597,0.8558,0.6911,14.0237,14.0833
i05_17_1.bmp,17,7.0313,0.9867,0.9828,0.9828,25.3337,26.9173
i05_17_2.bmp,17,4.6667,0.9629,0.9602,0.8602,22.0692,23.1749
i05_17_3.bmp,17,6.9394,0.9544,0.9401,0.8411,19.3836,20.4992
i05_17_4.bmp,17,3.4848,0.8174,0.8176,0.6823,16.0377,16.6943
i06_01_1.bmp,1,5.75,0.9868,0.9863,0.7356,34.8643,40.1311
i06_01_2.bmp,1,5.3333,0.9746,0.9735,0.6263,31.782,36.212
i06_01_3.bmp,1,4.7838,0.9558,0.952,0.5158,28.8197,32.6055
i06_01_4.bmp,1,4.1351,0.9234,0.9132,0.4082,25.8061,29.0213
i06_02_1.bmp,2,6.6,0.9962,0.9955,0.8956,40.3717,46.1151
i06_02_2.bmp,2,6.1111,0.9926,0.9921,0.8248,37.3755,42.5713
i06_02_3.bmp,2,5.4167,0.986,0.9855,0.7322,34.3605,38.8549
i06_02_4.bmp,2,4.9714,0.9742,0.9731,0.6246,31.3236,35.1596
i06_03_1.bmp,3,4.5405,0.9674,0.95,0.581,30.1105,32.8113
i06_03_2.bmp,3,3.973,0.9387,0.9073,0.4677,27.0488,29.209
i06_03_3.bmp,3,3.3889,0.8972,0.8464,0.3685,24.1967,26.0215
i06_03_4.bmp,3,2.7838,0.8296,0.7505,0.2783,21.2058,22.7566
i06_04_1.bmp,4,6.3243,0.9978,0.9986,0.9171,39.3848,50.4326
i06_04_2.bmp,4,5.7143,0.9957,0.9978,0.8636,36.3157,46.22
i06_04_3.bmp,4,5.3611,0.9913,0.9963,0.7864,33.0795,41.5216
i06_04_4.bmp,4,4.7647,0.9844,0.9937,0.7027,30.2857,37.3796
i06_05_1.bmp,5,6.0811,0.9916,0.9946,0.8569,38.7848,44.9302
i06_05_2.bmp,5,5.4324,0.9772,0.9855,0.7101,33.8383,39.245
i06_05_3.bmp,5,4.7027,0.9437,0.9589,0.5278,28.7517,33.1743
i06_05_4.bmp,5,3.4857,0.8713,0.8842,0.3455,23.3732,26.657
i06_06_1.bmp,6,4.8649,0.9764,0.9706,0.7337,32.3096,36.1439
i06_06_2.bmp,6,4.4865,0.9553,0.9434,0.6109,29.143,32.6508
i06_06_3.bmp,6,4.1389,0.9239,0.9044,0.4798,26.0711,29.1609
i06_06_4.bmp,6,3.5556,0.8789,0.8464,0.3644,22.9796,25.5335
i06_07_1.bmp,7,5.1944,0.9851,0.9826,0.7146,31.447,33.2799
i06_07_2.bmp,7,4.6944,0.9772,0.9718,0.5955,30.3146,33.2337
i06_07_3.bmp,7,3.2286,0.9567,0.9462,0.4758,26.4153,28.3642
i06_07_4.bmp,7,3.0833,0.9257,0.9108,0.3628,22.8371,24.2412
i06_08_1.bmp,8,4.8889,0.986,0.9877,0.679,28.9148,32.7518
i06_08_2.bmp,8,4.1389,0.9522,0.9529,0.4628,24.1328,26.599
i06_08_3.bmp,8,3.1944,0.8681,0.8414,0.2409,20.3735,21.9016
i06_08_4.bmp,8,2.1622,0.7238,0.6433,0.079,17.6403,18.6213
i06_09_1.bmp,9,6.3333,0.9835,0.9789,0.5853,32.251,36.7076
i06_09_2.bmp,9,5.1111,0.956,0.9445,0.3966,27.5687,30.6771
i06_09_3.bmp,9,3.3243,0.8809,0.851,0.2192,22.8163,24.7227
i06_09_4.bmp,9,1.4571,0.7122,0.6536,0.0807,17.7775,18.6439
i06_10_1.bmp,10,6.1081,0.9914,0.9936,0.7469,37.018,47.2537
i06_10_2.bmp,10,5.2703,0.9738,0.974,0.4942,30.4943,37.2492
i06_10_3.bmp,10,3.3333,0.9124,0.8935,0.2473,24.0092,26.9565
i06_10_4.bmp,10,1.5135,0.8149,0.7696,0.1238,20.4645,22.1254
i06_11_1.bmp,11,5.7838,0.9917,0.9869,0.607,32.2957,38.6194
i06_11_2.bmp,11,5.1111,0.9799,0.9674,0.4246,27.9416,32.1122
i06_11_3.bmp,11,3.1111,0.906,0.8641,0.1898,22.9286,25.2208
i06_11_4.bmp,11,0.1429,0.6404,0.5683,0.0291,18.2078,19.2859
i06_12_1.bmp,12,4.5556,0.9763,0.9659,0.8041,28.1728,29.9749
i06_12_2.bmp,12,4.1389,0.9635,0.9486,0.7423,25.719,27.5365
i06_12_3.bmp,12,3.6667,0.9373,0.9142,0.6041,23.2499,24.9573
i06_12_4.bmp,12,4.1622,0.8213,0.7643,0.3195,18.7046,19.903
i06_13_1.bmp,13,5.1892,0.9852,0.982,0.7933,32.0495,36.6044
i06_13_2.bmp,13,4.4444,0.9379,0.904,0.5178,25.367,27.6985
i06_13_3.bmp,13,3.4444,0.8227,0.7486,0.2857,21.6949,23.3253
i06_13_4.bmp,13,2.6389,0.8022,0.6932,0.2452,18.7684,20.3598
i06_14_1.bmp,14,6.3784,0.9853,0.9797,0.801,27.4368,29.3633
i06_14_2.bmp,14,5.1351,0.9539,0.9383,0.6502,23.1632,24.444
i06_14_3.bmp,14,4.5,0.9218,0.9026,0.563,21.3785,22.4201
i06_14_4.bmp,14,4.25,0.874,0.8565,0.4878,19.4656,20.2605
i06_15_1.bmp,15,2.5556,0.8934,0.9113,0.7748,20.2934,20.7183
i06_15_2.bmp,15,3.25,0.9371,0.9515,0.8816,21.4443,21.7895
i06_15_3.bmp,15,4.0278,0.959,0.9734,0.9448,22.3018,22.5532
i06_15_4.bmp,15,4.4324,0.9776,0.9849,0.968,22.9519,23.14
i06_16_1.bmp,16,6.8333,0.999,0.9956,0.9867,25.7053,25.728
i06_16_2.bmp,16,5.6111,0.9978,0.9846,0.9971,19.3084,19.3097
i06_16_3.bmp,16,5.8108,0.992,0.9753,0.9496,16.3559,16.3691
i06_16_4.bmp,16,4.9459,0.9882,0.9317,0.9576,13.3361,13.3395
i06_17_1.bmp,17,6.5405,0.986,0.9832,1.0526,25.7729,26.5345
i06_17_2.bmp,17,4.6111,0.9687,0.9683,0.8511,21.5873,21.9828
i06_17_3.bmp,17,6.0,0.9507,0.9391,1.0549,19.8056,20.4371
i06_17_4.bmp,17,3.7143,0.8493,0.8597,0.665,15.5759,15.8242
i07_01_1.bmp,1,5.5455,0.983,0.9853,0.7207,34.8524,39.9757
i07_01_2.bmp,1,4.9091,0.9682,0.9716,0.611,31.7806,36.2042
i07_01_3.bmp,1,4.8182,0.945,0.948,0.5008,28.7982,32.6265
i07_01_4.bmp,1,4.0,0.9085,0.9048,0.3979,25.7935,29.1203
i07_02_1.bmp,2,6.0909,0.9953,0.9955,0.8887,40.7227,47.2525
i07_02_2.bmp,2,6.0,0.991,0.9919,0.8149,37.7347,43.4736
i07_02_3.bmp,2,5.3333,0.9829,0.985,0.7188,34.7823,39.8472
i07_02_4.bmp,2,5.0588,0.9682,0.9711,0.6093,31.7685,36.1161
i07_03_1.bmp,3,4.6563,0.9647,0.9463,0.5466,29.9548,32.4196
i07_03_2.bmp,3,4.0882,0.9358,0.9035,0.4383,26.9506,28.9897
i07_03_3.bmp,3,3.3824,0.8899,0.8345,0.3391,23.9019,25.6191
i07_03_4.bmp,3,2.8235,0.8221,0.7402,0.2568,20.8976,22.3823
i07_04_1.bmp,4,6.2727,0.997,0.9987,0.9144,39.622,53.7025
i07_04_2.bmp,4,5.7273,0.9943,0.9982,0.8612,36.6458,48.96
i07_04_3.bmp,4,5.4516,0.9888,0.997,0.7817,33.3895,43.1642
i07_04_4.bmp,4,4.5,0.9795,0.9944,0.6835,30.2042,37.5542
i07_05_1.bmp,5,6.4516,0.9884,0.9946,0.8532,39.3231,47.6746
i07_05_2.bmp,5,5.7879,0.9697,0.9854,0.7049,34.4019,41.6469
i07_05_3.bmp,5,4.8125,0.9293,0.9578,0.5229,29.3643,35.381
i07_05_4.bmp,5,3.7353,0.8508,0.8823,0.3438,24.0732,28.6241
i07_06_1.bmp,6,4.8788,0.986,0.9861,0.7276,34.5774,39.0644
i07_06_2.bmp,6,4.8182,0.9745,0.9746,0.6141,31.6448,35.7297
i07_06_3.bmp,6,4.1515,0.9525,0.9518,0.4939,28.5883,32.0728
i07_06_4.bmp,6,3.7353,0.9161,0.9125,0.3872,25.5018,28.3766
i07_07_1.bmp,7,5.3636,0.9842,0.9799,0.6644,32.322,34.7995
i07_07_2.bmp,7,4.2059,0.9642,0.9552,0.5263,28.1427,30.0193
i07_07_3.bmp,7,3.6667,0.9373,0.9247,0.4419,24.5103,25.8282
i07_07_4.bmp,7,2.7353,0.8979,0.8822,0.3378,21.3505,22.3579
i07_08_1.bmp,8,5.7576,0.9954,0.9946,0.7896,32.9611,36.6453
i07_08_2.bmp,8,4.6765,0.9831,0.9792,0.5998,27.6891,30.144
i07_08_3.bmp,8,3.6471,0.9362,0.909,0.3643,22.716,24.0922
i07_08_4.bmp,8,2.6667,0.7723,0.6909,0.1305,18.4648,19.1987
i07_09_1.bmp,9,6.2353,0.9913,0.9886,0.6642,35.2786,39.9713
i07_09_2.bmp,9,5.5,0.9801,0.9736,0.5112,31.0573,34.368
i07_09_3.bmp,9,3.9688,0.9498,0.9324,0.3352,26.1166,28.2033
i07_09_4.bmp,9,2.4118,0.8369,0.7892,0.1727,20.2229,21.0792
i07_10_1.bmp,10,6.1765,0.9947,0.995,0.7925,38.9385,46.8641
i07_10_2.bmp,10,5.0,0.9846,0.9827,0.5615,32.5759,38.0406
i07_10_3.bmp,10,3.6471,0.9457,0.9284,0.3078,25.7829,28.1657
i07_10_4.bmp,10,2.2424,0.8863,0.8469,0.1832,21.7077,23.0145
i07_11_1.bmp,11,4.8235,0.9807,0.9707,0.4624,29.938,33.5277
i07_11_2.bmp,11,3.5938,0.945,0.9151,0.2849,25.3822,27.3981
i07_11_3.bmp,11,2.0,0.8658,0.7984,0.1317,21.0703,22.1774
i07_11_4.bmp,11,0.3125,0.6631,0.5826,0.0467,17.6932,18.3253
i07_12_1.bmp,12,4.4848,0.9767,0.9684,0.755,28.759,30.5482
i07_12_2.bmp,12,3.7353,0.95,0.9339,0.5317,25.328,27.2222
i07_12_3.bmp,12,2.8824,0.9178,0.8874,0.3343,22.6734,24.287
i07_12_4.bmp,12,2.3235,0.7396,0.654,0.193,16.4335,17.1324
i07_13_1.bmp,13,4.2059,0.9518,0.9244,0.5786,27.8565,29.8438
i07_13_2.bmp,13,3.697,0.8836,0.8156,0.3158,23.5091,24.8837
i07_13_3.bmp,13,2.6667,0.8119,0.7122,0.2443,20.0474,21.0712
i07_13_4.bmp,13,2.5,0.6941,0.5489,0.1679,17.3974,18.3336
i07_14_1.bmp,14,6.3636,0.9907,0.9879,0.8006,29.6278,31.5515
i07_14_2.bmp,14,5.9412,0.9706,0.9609,0.6775,25.46,26.6627
i07_14_3.bmp,14,5.3636,0.9515,0.9363,0.6008,23.1216,24.0506
i07_14_4.bmp,14,4.1212,0.9227,0.9127,0.5402,21.6107,22.3688
i07_15_1.bmp,15,3.2188,0.8881,0.9175,0.7524,21.202,21.6089
i07_15_2.bmp,15,3.4848,0.9298,0.9522,0.8516,22.2773,22.6225
i07_15_3.bmp,15,3.6875,0.9572,0.9741,0.9225,23.3993,23.6643
i07_15_4.bmp,15,4.2121,0.969,0.9852,0.9566,24.7702,24.9459
i07_16_1.bmp,16,6.6061,0.9994,0.9951,0.998,25.3276,25.3348
i07_16_2.bmp,16,6.3636,0.9966,0.9793,0.9943,19.3306,19.3322
i07_16_3.bmp,16,5.697,0.9953,0.9714,0.9864,15.7993,15.8017
i07_16_4.bmp,16,5.3939,0.9813,0.9079,0.8816,13.4504,13.4615
i07_17_1.bmp,17,6.75,0.9866,0.9862,1.0913,27.0203,27.9187
i07_17_2.bmp,17,5.0303,0.9676,0.9699,0.8419,24.7816,25.4422
i07_17_3.bmp,17,6.5882,0.9505,0.9494,1.0987,20.4558,21.0314
i07_17_4.bmp,17,4.0303,0.8428,0.8629,0.6492,18.7669,19.1497
i08_01_1.bmp,1,5.6875,0.9905,0.99,0.7562,34.8492,41.5563
i08_01_2.bmp,1,5.0,0.9821,0.9812,0.6548,31.8573,37.6919
i08_01_3.bmp,1,4.3226,0.9673,0.964,0.5468,28.8453,33.7849
i08_01_4.bmp,1,4.1613,0.944,0.9364,0.4442,25.8992,30.1004
i08_02_1.bmp,2,6.2188,0.9974,0.9969,0.9005,40.4485,48.6387
i08_02_2.bmp,2,5.7333,0.9949,0.9944,0.8356,37.499,44.738
i08_02_3.bmp,2,5.4667,0.9903,0.9898,0.7488,34.4995,40.8293
i08_02_4.bmp,2,5.2,0.9817,0.9804,0.6468,31.4428,36.8006
i08_03_1.bmp,3,4.8125,0.9784,0.9637,0.6146,30.1726,33.7131
i08_03_2.bmp,3,4.0323,0.9594,0.9331,0.5074,27.1138,30.0619
i08_03_3.bmp,3,3.4375,0.928,0.884,0.4084,24.1077,26.5173
i08_03_4.bmp,3,2.8387,0.8813,0.8153,0.316,21.1691,23.191
i08_04_1.bmp,4,5.875,0.9987,0.9991,0.9215,38.8054,49.3023
i08_04_2.bmp,4,6.0323,0.9974,0.9987,0.8727,35.6939,45.3358
i08_04_3.bmp,4,5.5,0.9948,0.9978,0.8058,32.5194,40.875
i08_04_4.bmp,4,5.1613,0.9899,0.9958,0.7204,29.2741,36.101
i08_05_1.bmp,5,5.9063,0.9939,0.9964,0.8664,39.0913,48.6052
i08_05_2.bmp,5,5.7742,0.9832,0.99,0.7285,34.1165,42.0927
i08_05_3.bmp,5,4.5806,0.9579,0.9711,0.5542,28.9812,35.177
i08_05_4.bmp,5,3.6129,0.9026,0.9165,0.3767,23.4482,27.6772
i08_06_1.bmp,6,4.4839,0.988,0.9849,0.724,32.3269,37.1203
i08_06_2.bmp,6,4.3125,0.9731,0.9667,0.5859,28.8636,33.1919
i08_06_3.bmp,6,3.875,0.9497,0.9374,0.4704,25.6128,29.3103
i08_06_4.bmp,6,3.4194,0.9152,0.8941,0.3583,22.4709,25.6122
i08_07_1.bmp,7,5.1563,0.9893,0.9864,0.7138,32.5819,36.8308
i08_07_2.bmp,7,4.5313,0.9794,0.9747,0.6279,29.8903,33.3934
i08_07_3.bmp,7,3.5484,0.9621,0.9521,0.5039,26.0503,28.6864
i08_07_4.bmp,7,2.5484,0.9306,0.9157,0.3725,21.8854,23.6953
i08_08_1.bmp,8,5.129,0.9872,0.988,0.6501,26.7197,31.3755
i08_08_2.bmp,8,3.9355,0.956,0.9539,0.4403,21.6781,24.5221
i08_08_3.bmp,8,3.0645,0.8797,0.8469,0.2305,17.455,19.1107
i08_08_4.bmp,8,1.9063,0.7444,0.6448,0.0854,14.1851,15.1704
i08_09_1.bmp,9,6.0625,0.9861,0.9832,0.6475,32.6198,38.2169
i08_09_2.bmp,9,5.2667,0.9714,0.9632,0.4864,28.2472,32.5603
i08_09_3.bmp,9,4.0,0.9341,0.9117,0.3102,22.9943,25.8018
i08_09_4.bmp,9,1.9688,0.8122,0.7581,0.1516,16.8246,18.0994
i08_10_1.bmp,10,6.0625,0.9921,0.9944,0.7662,36.4579,47.0587
i08_10_2.bmp,10,5.0,0.978,0.9776,0.5295,29.9866,37.5257
i08_10_3.bmp,10,3.3226,0.9361,0.9189,0.2953,23.5665,27.6918
i08_10_4.bmp,10,1.0938,0.8787,0.8423,0.1769,19.6569,22.1087
i08_11_1.bmp,11,5.4194,0.9922,0.9909,0.6647,32.525,39.6566
i08_11_2.bmp,11,4.9677,0.9823,0.9763,0.492,27.9785,33.0212
i08_11_3.bmp,11,4.3226,0.9668,0.9525,0.3539,24.3734,28.4761
i08_11_4.bmp,11,2.4194,0.8768,0.826,0.1525,19.3609,21.5249
i08_12_1.bmp,12,5.9032,0.9967,0.9946,0.9519,30.2876,32.4978
i08_12_2.bmp,12,5.5667,0.9884,0.9809,0.8754,25.8523,27.7781
i08_12_3.bmp,12,4.4688,0.9789,0.9692,0.8198,23.9918,26.0282
i08_12_4.bmp,12,3.7097,0.9219,0.8861,0.7569,15.7825,16.2159
i08_13_1.bmp,13,3.625,0.956,0.9295,0.605,25.8227,28.294
i08_13_2.bmp,13,4.5806,0.9812,0.9828,0.831,28.3284,32.0494
i08_13_3.bmp,13,3.3125,0.926,0.8795,0.472,23.063,25.5629
i08_13_4.bmp,13,2.4516,0.8246,0.7485,0.344,17.5972,18.9982
i08_14_1.bmp,14,6.0968,0.9873,0.9802,0.8115,24.7901,26.5997
i08_14_2.bmp,14,5.5806,0.9667,0.9481,0.6789,20.1768,21.4357
i08_14_3.bmp,14,4.75,0.9445,0.9211,0.5902,18.986,20.0984
i08_14_4.bmp,14,3.5313,0.9024,0.8707,0.5164,16.3402,17.1468
i08_15_1.bmp,15,2.4516,0.8885,0.9054,0.7834,17.5111,17.9733
i08_15_2.bmp,15,3.25,0.9361,0.9508,0.8843,19.4521,19.837
i08_15_3.bmp,15,4.0,0.963,0.9752,0.9407,20.8716,21.1869
i08_15_4.bmp,15,3.8438,0.9754,0.986,0.9737,21.9165,22.1337
i08_16_1.bmp,16,6.2258,0.9991,0.9953,0.9599,25.5912,25.6763
i08_16_2.bmp,16,5.7813,0.997,0.98,0.9943,19.3182,19.3203
i08_16_3.bmp,16,5.7188,0.9913,0.9691,0.8395,16.257,16.3352
i08_16_4.bmp,16,5.0,0.9827,0.9112,0.9164,13.4094,13.4186
i08_17_1.bmp,17,5.8065,0.988,0.9834,0.9484,24.3526,25.5226
i08_17_2.bmp,17,4.9063,0.9645,0.9629,0.8634,20.5244,21.3529
i08_17_3.bmp,17,5.3125,0.9581,0.9381,0.8184,18.8368,19.7524
i08_17_4.bmp,17,3.871,0.8273,0.834,0.6914,14.5145,15.01
i09_01_1.bmp,1,5.2424,0.9729,0.9759,0.7164,34.837,38.9615
i09_01_2.bmp,1,5.0882,0.9505,0.9549,0.6075,31.8397,35.5478
i09_01_3.bmp,1,4.8125,0.9133,0.9173,0.4981,28.8266,32.1651
i09_01_4.bmp,1,4.1818,0.8596,0.8556,0.3934,25.8446,28.8694
i09_02_1.bmp,2,6.2059,0.9927,0.9927,0.886,40.7542,45.9703
i09_02_2.bmp,2,5.8182,0.9856,0.9869,0.8109,37.7485,42.368
i09_02_3.bmp,2,5.4706,0.9727,0.9756,0.7151,34.7325,38.8317
i09_02_4.bmp,2,4.8235,0.9497,0.9547,0.6046,31.7577,35.4593
i09_03_1.bmp,3,4.4412,0.9389,0.9143,0.5493,29.9676,32.0303
i09_03_2.bmp,3,4.1765,0.8922,0.8507,0.4428,26.9232,28.7035
i09_03_3.bmp,3,3.6176,0.8244,0.7578,0.346,23.9415,25.525
i09_03_4.bmp,3,3.303,0.7336,0.6396,0.2618,20.8984,22.2959
i09_04_1.bmp,4,5.9706,0.9975,0.9983,0.91,38.6731,48.2214
i09_04_2.bmp,4,5.4412,0.9951,0.9977,0.856,35.5011,43.5922
i09_04_3.bmp,4,5.0303,0.9907,0.9965,0.7818,32.1818,38.5932
i09_04_4.bmp,4,4.4412,0.9827,0.9936,0.6911,28.8268,33.6368
i09_05_1.bmp,5,6.2727,0.9828,0.9912,0.8462,39.3063,46.1223
i09_05_2.bmp,5,5.3235,0.9548,0.9762,0.693,34.3707,40.3838
i09_05_3.bmp,5,4.6176,0.8962,0.9332,0.5109,29.3446,34.5999
i09_05_4.bmp,5,3.7647,0.7943,0.8261,0.3375,24.0988,28.3609
i09_06_1.bmp,6,4.9412,0.9754,0.9757,0.7186,34.2252,38.0927
i09_06_2.bmp,6,4.6765,0.9554,0.9566,0.6043,31.4133,34.9262
i09_06_3.bmp,6,4.1176,0.9173,0.9154,0.4855,28.2563,31.3416
i09_06_4.bmp,6,3.7353,0.8616,0.8515,0.3691,25.0659,27.6808
i09_07_1.bmp,7,4.9394,0.975,0.9755,0.6807,32.8701,35.0475
i09_07_2.bmp,7,4.5294,0.9637,0.9631,0.5232,28.9729,30.6273
i09_07_3.bmp,7,4.0,0.9259,0.9259,0.4356,24.4936,25.5271
i09_07_4.bmp,7,3.0313,0.8747,0.8791,0.3555,21.5733,22.5754
i09_08_1.bmp,8,5.5455,0.9941,0.9938,0.7205,31.9912,36.0928
i09_08_2.bmp,8,4.6364,0.9808,0.979,0.513,26.7354,29.2637
i09_08_3.bmp,8,3.6061,0.9436,0.9253,0.2897,22.0032,23.407
i09_08_4.bmp,8,2.1471,0.8578,0.8012,0.1182,18.1994,18.9836
i09_09_1.bmp,9,6.3333,0.9862,0.9842,0.5797,34.9463,39.2965
i09_09_2.bmp,9,5.375,0.9745,0.9688,0.4343,30.9063,34.2258
i09_09_3.bmp,9,3.8235,0.9453,0.9297,0.2835,26.4041,28.6364
i09_09_4.bmp,9,2.3824,0.8555,0.8242,0.1438,20.1894,21.1185
i09_10_1.bmp,10,5.9375,0.9907,0.9918,0.7272,38.6724,45.3483
i09_10_2.bmp,10,5.1471,0.9785,0.9778,0.501,32.6872,37.8195
i09_10_3.bmp,10,3.3235,0.9376,0.9236,0.2749,26.1741,28.7762
i09_10_4.bmp,10,2.0294,0.8815,0.8501,0.1643,22.2868,23.7742
i09_11_1.bmp,11,5.0882,0.9823,0.9752,0.4443,30.5816,34.8009
i09_11_2.bmp,11,3.7059,0.9504,0.9286,0.2486,25.8814,28.2692
i09_11_3.bmp,11,2.1818,0.8678,0.8142,0.1076,21.18,22.4144
i09_11_4.bmp,11,0.0,0.7514,0.6968,0.043,17.4111,18.0949
i09_12_1.bmp,12,6.4545,0.9877,0.9798,0.8716,30.6508,32.5764
i09_12_2.bmp,12,4.5588,0.9682,0.9556,0.6309,25.831,27.8635
i09_12_3.bmp,12,2.6471,0.9089,0.8817,0.3179,22.7261,24.6362
i09_12_4.bmp,12,2.3333,0.8414,0.7789,0.1936,17.4439,18.3634
i09_13_1.bmp,13,4.0909,0.8943,0.8735,0.5358,27.4809,29.3984
i09_13_2.bmp,13,3.5938,0.8459,0.7847,0.4016,23.1301,24.6277
i09_13_3.bmp,13,3.0588,0.7986,0.7156,0.2852,21.3357,22.5733
i09_13_4.bmp,13,3.2059,0.7822,0.7143,0.3775,20.9871,22.4895
i09_14_1.bmp,14,6.2647,0.9916,0.9872,0.7874,28.6557,30.6401
i09_14_2.bmp,14,6.5,0.9722,0.9587,0.649,24.2682,25.4513
i09_14_3.bmp,14,4.7059,0.955,0.9354,0.5673,22.3844,23.3199
i09_14_4.bmp,14,3.4688,0.9265,0.9106,0.5093,20.5753,21.3631
i09_15_1.bmp,15,2.3529,0.8857,0.9044,0.722,19.8733,20.3021
i09_15_2.bmp,15,3.2353,0.9353,0.9513,0.8421,21.3335,21.7163
i09_15_3.bmp,15,3.6176,0.9556,0.9707,0.9027,21.8322,22.1523
i09_15_4.bmp,15,4.6667,0.9688,0.9833,0.9551,23.0351,23.2255
i09_16_1.bmp,16,6.5882,0.9996,0.9954,0.9935,25.3376,25.3473
i09_16_2.bmp,16,6.0588,0.9981,0.9842,0.9978,19.3109,19.3182
i09_16_3.bmp,16,6.2647,0.9969,0.9778,0.9546,15.806,15.8122
i09_16_4.bmp,16,5.4118,0.9906,0.9326,0.947,13.3554,13.3634
i09_17_1.bmp,17,6.8788,0.9882,0.9857,1.0787,25.3868,26.0235
i09_17_2.bmp,17,5.3824,0.9723,0.9747,0.8387,23.1933,23.7109
i09_17_3.bmp,17,7.0294,0.9553,0.9453,1.0611,18.9216,19.3205
i09_17_4.bmp,17,4.0606,0.8663,0.8927,0.6429,17.1658,17.4695
i10_01_1.bmp,1,5.7,0.975,0.9773,0.701,34.8204,39.0594
i10_01_2.bmp,1,5.0968,0.9534,0.9574,0.587,31.7766,35.4568
i10_01_3.bmp,1,4.8333,0.9178,0.9212,0.4721,28.7787,31.9889
i10_01_4.bmp,1,4.0645,0.8635,0.8596,0.3683,25.7752,28.627
i10_02_1.bmp,2,6.3333,0.9932,0.9931,0.8789,40.5697,46.0154
i10_02_2.bmp,2,5.9667,0.9868,0.9877,0.7983,37.58,42.3716
i10_02_3.bmp,2,5.3333,0.9747,0.9772,0.6963,34.5991,38.7218
i10_02_4.bmp,2,4.9333,0.9534,0.9573,0.5814,31.5742,35.1326
i10_03_1.bmp,3,4.5,0.9418,0.9197,0.5291,29.9944,32.0223
i10_03_2.bmp,3,4.1034,0.8949,0.8554,0.4188,26.9604,28.6554
i10_03_3.bmp,3,3.6452,0.8248,0.7616,0.3192,23.9064,25.3865
i10_03_4.bmp,3,3.129,0.7284,0.6401,0.2419,20.9487,22.2738
i10_04_1.bmp,4,5.7742,0.9969,0.9981,0.9165,38.2534,45.3005
i10_04_2.bmp,4,5.8065,0.994,0.9973,0.8673,35.2384,41.2059
i10_04_3.bmp,4,5.1613,0.9886,0.9957,0.7956,32.057,36.9748
i10_04_4.bmp,4,4.8966,0.9784,0.992,0.6999,28.8705,32.8414
i10_05_1.bmp,5,6.2903,0.9843,0.9918,0.8386,39.1486,46.1786
i10_05_2.bmp,5,5.5806,0.9581,0.9778,0.6788,34.2141,40.1514
i10_05_3.bmp,5,4.7667,0.9006,0.9365,0.4896,29.1578,34.0635
i10_05_4.bmp,5,3.8,0.7936,0.8289,0.3124,23.8755,27.7616
i10_06_1.bmp,6,5.3,0.9784,0.9765,0.7049,33.4738,36.9491
i10_06_2.bmp,6,4.7742,0.957,0.9533,0.5698,30.509,33.8325
i10_06_3.bmp,6,4.4667,0.9213,0.9153,0.4331,27.3474,30.3519
i10_06_4.bmp,6,3.8333,0.8635,0.8485,0.3242,24.372,26.9619
i10_07_1.bmp,7,4.6552,0.9715,0.973,0.6851,32.4843,34.443
i10_07_2.bmp,7,4.0,0.9395,0.9427,0.5533,28.6499,30.1131
i10_07_3.bmp,7,3.6207,0.8844,0.8898,0.4171,24.2819,25.2697
i10_07_4.bmp,7,3.2,0.8334,0.8518,0.3062,20.8912,21.7161
i10_08_1.bmp,8,5.3,0.9936,0.9931,0.7364,33.0753,37.5468
i10_08_2.bmp,8,4.4483,0.9785,0.9762,0.527,27.9783,30.7933
i10_08_3.bmp,8,3.5161,0.9382,0.9176,0.2958,23.5385,25.1525
i10_08_4.bmp,8,2.5161,0.856,0.7931,0.1168,20.0285,20.9507
i10_09_1.bmp,9,6.1935,0.983,0.9802,0.5586,34.3797,38.3449
i10_09_2.bmp,9,5.0333,0.9642,0.9562,0.3902,30.1893,33.0312
i10_09_3.bmp,9,3.5484,0.9191,0.895,0.2202,25.4602,27.2918
i10_09_4.bmp,9,2.1613,0.8152,0.7689,0.0982,20.2618,21.0997
i10_10_1.bmp,10,6.1034,0.9901,0.9911,0.7292,38.3895,45.2873
i10_10_2.bmp,10,5.2414,0.9742,0.9724,0.4807,32.3247,36.8676
i10_10_3.bmp,10,3.1613,0.919,0.9011,0.2406,26.0744,28.2898
i10_10_4.bmp,10,2.1935,0.8421,0.8055,0.1312,22.2612,23.5132
i10_11_1.bmp,11,4.8065,0.9716,0.96,0.3795,30.0223,33.5984
i10_11_2.bmp,11,3.3,0.9156,0.8841,0.1845,25.0387,26.8768
i10_11_3.bmp,11,1.6,0.8169,0.7551,0.0651,20.7855,21.8086
i10_11_4.bmp,11,0.069,0.6738,0.634,0.0191,17.2924,17.8422
i10_12_1.bmp,12,5.7,0.9831,0.9762,0.7857,30.8705,32.8203
i10_12_2.bmp,12,5.0,0.9581,0.9419,0.5916,25.5802,27.4762
i10_12_3.bmp,12,4.1667,0.9042,0.8526,0.444,19.9182,20.798
i10_12_4.bmp,12,2.6333,0.7703,0.6779,0.1423,16.2264,16.8881
i10_13_1.bmp,13,4.2903,0.8967,0.8522,0.4486,27.0117,28.4784
i10_13_2.bmp,13,3.6129,0.8297,0.7687,0.3575,24.1888,25.6495
i10_13_3.bmp,13,2.9667,0.7086,0.5931,0.3697,19.3902,20.0235
i10_13_4.bmp,13,3.0333,0.7183,0.612,0.226,20.273,21.4952
i10_14_1.bmp,14,6.1,0.9885,0.9838,0.764,27.9259,29.7856
i10_14_2.bmp,14,5.4667,0.9694,0.9565,0.6507,24.1033,25.3272
i10_14_3.bmp,14,4.1724,0.9471,0.9279,0.5674,22.1829,23.1265
i10_14_4.bmp,14,3.9667,0.9178,0.898,0.4975,21.0672,21.842
i10_15_1.bmp,15,2.7241,0.894,0.9097,0.7261,20.5115,20.8813
i10_15_2.bmp,15,3.2667,0.9373,0.9513,0.8448,21.6926,21.9941
i10_15_3.bmp,15,3.5484,0.9577,0.9742,0.9041,22.4487,22.7389
i10_15_4.bmp,15,3.9677,0.9736,0.9865,0.9535,24.3386,24.5276
i10_16_1.bmp,16,6.5161,0.9994,0.9949,0.9848,25.397,25.4227
i10_16_2.bmp,16,6.1,0.9982,0.9823,0.9979,19.3117,19.3201
i10_16_3.bmp,16,5.871,0.9951,0.9741,0.9406,15.8785,15.8923
i10_16_4.bmp,16,5.3333,0.989,0.9323,0.9293,13.4021,13.4109
i10_17_1.bmp,17,6.9032,0.9882,0.9831,1.0649,26.6733,27.2434
i10_17_2.bmp,17,5.2,0.9731,0.9732,0.8306,23.7797,24.2348
i10_17_3.bmp,17,6.4194,0.9555,0.9444,1.0472,20.6152,21.0279
i10_17_4.bmp,17,4.2414,0.8714,0.8903,0.6268,17.7463,18.0168
i11_01_1.bmp,1,6.0313,0.9838,0.9844,0.7253,34.8664,40.0812
i11_01_2.bmp,1,5.2727,0.9702,0.9708,0.6138,31.8705,36.3944
i11_01_3.bmp,1,4.5484,0.9484,0.9474,0.5041,28.9707,32.8547
i11_01_4.bmp,1,4.0303,0.9135,0.9062,0.4005,26.0211,29.322
i11_02_1.bmp,2,6.1875,0.9956,0.9952,0.8922,40.7989,47.7945
i11_02_2.bmp,2,5.8438,0.9915,0.9915,0.8184,37.8097,43.8652
i11_02_3.bmp,2,5.3939,0.9842,0.9846,0.725,34.8612,40.1025
i11_02_4.bmp,2,5.1563,0.9706,0.971,0.6103,31.8009,36.1573
i11_03_1.bmp,3,4.7576,0.9634,0.9427,0.5595,29.9519,32.4303
i11_03_2.bmp,3,4.0625,0.9353,0.8987,0.4532,27.0232,29.0928
i11_03_3.bmp,3,3.3438,0.8884,0.828,0.3516,24.0396,25.7749
i11_03_4.bmp,3,2.9394,0.8215,0.7301,0.2626,21.1462,22.6466
i11_04_1.bmp,4,6.4242,0.9975,0.9986,0.918,39.9728,53.9721
i11_04_2.bmp,4,6.1212,0.9951,0.998,0.8643,36.8991,49.1321
i11_04_3.bmp,4,5.5758,0.9906,0.9967,0.7891,33.764,43.6832
i11_04_4.bmp,4,4.8788,0.9821,0.9938,0.6898,30.5131,38.0178
i11_05_1.bmp,5,6.2121,0.9896,0.9944,0.852,39.3534,48.2667
i11_05_2.bmp,5,5.5484,0.9725,0.9848,0.7009,34.4259,41.6354
i11_05_3.bmp,5,4.6061,0.9338,0.9558,0.5146,29.2497,34.5084
i11_05_4.bmp,5,3.5455,0.8526,0.8726,0.3313,23.6259,27.0721
i11_06_1.bmp,6,4.75,0.9817,0.98,0.7203,33.7563,37.7824
i11_06_2.bmp,6,4.3548,0.9629,0.9594,0.6078,30.6625,34.1734
i11_06_3.bmp,6,3.9697,0.9348,0.9264,0.4824,27.4955,30.5448
i11_06_4.bmp,6,3.3438,0.888,0.8677,0.3626,24.121,26.5711
i11_07_1.bmp,7,5.2581,0.9788,0.9737,0.695,32.6885,35.5444
i11_07_2.bmp,7,4.75,0.9676,0.9579,0.5929,29.906,32.1234
i11_07_3.bmp,7,3.7419,0.9414,0.9187,0.5119,25.889,27.2015
i11_07_4.bmp,7,2.8182,0.9005,0.8571,0.399,21.4855,22.4284
i11_08_1.bmp,8,4.75,0.9899,0.9908,0.693,30.6864,35.3117
i11_08_2.bmp,8,4.2727,0.9665,0.9659,0.4768,25.7504,28.6697
i11_08_3.bmp,8,3.3636,0.9079,0.884,0.2535,21.6589,23.3995
i11_08_4.bmp,8,2.2121,0.8002,0.7224,0.0913,18.5899,19.6407
i11_09_1.bmp,9,5.5758,0.9816,0.9778,0.5804,32.8832,37.3308
i11_09_2.bmp,9,4.697,0.9577,0.947,0.4015,28.5642,31.7631
i11_09_3.bmp,9,3.3226,0.903,0.8723,0.2299,23.6485,25.5923
i11_09_4.bmp,9,1.8485,0.7767,0.7058,0.0987,18.1291,18.9352
i11_10_1.bmp,10,6.2424,0.9906,0.9928,0.7488,37.344,46.9018
i11_10_2.bmp,10,5.6563,0.9735,0.9729,0.4993,30.986,36.7499
i11_10_3.bmp,10,3.6875,0.9214,0.9005,0.2537,24.7711,27.5871
i11_10_4.bmp,10,1.9063,0.8346,0.7791,0.136,20.9911,22.5489
i11_11_1.bmp,11,5.5313,0.9885,0.9829,0.5769,32.0331,37.6218
i11_11_2.bmp,11,4.6563,0.9745,0.9625,0.3963,27.6872,31.7212
i11_11_3.bmp,11,2.7879,0.8834,0.8331,0.1514,22.4871,24.3676
i11_11_4.bmp,11,0.0938,0.7009,0.6091,0.0331,18.1016,19.0462
i11_12_1.bmp,12,5.8125,0.9919,0.9908,0.944,29.3578,29.4434
i11_12_2.bmp,12,4.5625,0.9506,0.9354,0.6995,25.9288,27.7425
i11_12_3.bmp,12,3.9697,0.9025,0.8613,0.3925,21.8924,23.2873
i11_12_4.bmp,12,2.0909,0.7845,0.7124,0.1873,18.4888,19.703
i11_13_1.bmp,13,4.3939,0.9669,0.9645,0.6342,29.6117,33.6844
i11_13_2.bmp,13,3.625,0.8574,0.7845,0.4837,23.2146,24.1638
i11_13_3.bmp,13,3.0,0.8475,0.7527,0.2977,20.4857,21.9264
i11_13_4.bmp,13,2.5484,0.7066,0.5698,0.168,18.0527,19.183
i11_14_1.bmp,14,6.3333,0.9869,0.9817,0.7706,26.5628,28.4589
i11_14_2.bmp,14,5.697,0.9608,0.946,0.6505,23.0956,24.3239
i11_14_3.bmp,14,4.9,0.9301,0.9083,0.5465,20.9705,21.9564
i11_14_4.bmp,14,4.1212,0.8875,0.8678,0.4861,19.4966,20.2785
i11_15_1.bmp,15,2.8125,0.8919,0.9107,0.7455,20.3191,20.7861
i11_15_2.bmp,15,3.6875,0.9318,0.9532,0.8627,21.804,22.1793
i11_15_3.bmp,15,4.2727,0.9497,0.973,0.9262,22.2659,22.5016
i11_15_4.bmp,15,4.2258,0.9627,0.9855,0.9607,23.0693,23.2437
i11_16_1.bmp,16,6.1818,0.9983,0.9907,0.9954,25.3593,25.3681
i11_16_2.bmp,16,5.7879,0.9867,0.9534,0.9643,19.5548,19.5611
i11_16_3.bmp,16,5.1563,0.9894,0.9469,0.9688,15.815,15.82
i11_16_4.bmp,16,4.9394,0.9359,0.8549,0.8278,14.017,14.0332
i11_17_1.bmp,17,6.8788,0.9857,0.9771,1.0568,26.1383,26.9414
i11_17_2.bmp,17,4.6667,0.9663,0.9625,0.8453,23.7913,24.4249
i11_17_3.bmp,17,7.1563,0.9499,0.9256,1.0152,20.1933,20.8094
i11_17_4.bmp,17,3.8485,0.8404,0.8459,0.6545,17.7707,18.158
i12_01_1.bmp,1,5.8182,0.9737,0.9747,0.6969,34.8639,38.6466
i12_01_2.bmp,1,5.2353,0.951,0.9516,0.5753,31.7831,35.0142
i12_01_3.bmp,1,4.6176,0.9119,0.9105,0.4595,28.7641,31.6264
i12_01_4.bmp,1,4.1176,0.8551,0.8454,0.3564,25.8982,28.4772
i12_02_1.bmp,2,6.1818,0.993,0.9922,0.8772,40.6362,45.6459
i12_02_2.bmp,2,5.8788,0.9861,0.9861,0.7957,37.6201,41.7974
i12_02_3.bmp,2,5.3824,0.9731,0.9739,0.6927,34.6205,38.165
i12_02_4.bmp,2,5.1563,0.9501,0.9516,0.5716,31.6229,34.6927
i12_03_1.bmp,3,4.5758,0.9359,0.9078,0.5212,30.0219,31.7752
i12_03_2.bmp,3,3.9412,0.8857,0.8392,0.4094,27.0421,28.5626
i12_03_3.bmp,3,3.4118,0.8066,0.7299,0.3013,23.9257,25.2561
i12_03_4.bmp,3,3.0,0.7003,0.6007,0.2223,21.0749,22.3006
i12_04_1.bmp,4,5.9091,0.9953,0.9974,0.9026,39.1813,48.78
i12_04_2.bmp,4,5.5294,0.991,0.9962,0.845,36.0249,43.9442
i12_04_3.bmp,4,4.9394,0.9829,0.9935,0.765,32.7127,38.8513
i12_04_4.bmp,4,4.0313,0.9685,0.9874,0.6641,29.4072,34.0035
i12_05_1.bmp,5,6.3333,0.9838,0.9906,0.8345,39.1517,45.4644
i12_05_2.bmp,5,5.3939,0.9561,0.9747,0.6698,34.1913,39.3503
i12_05_3.bmp,5,4.6471,0.8948,0.9279,0.4731,29.1333,33.3245
i12_05_4.bmp,5,3.8485,0.7806,0.8089,0.2893,23.8638,27.0789
i12_06_1.bmp,6,5.3235,0.9667,0.9616,0.6548,32.189,35.2538
i12_06_2.bmp,6,5.0303,0.9345,0.9253,0.5163,29.0238,31.9344
i12_06_3.bmp,6,4.5758,0.8861,0.8663,0.3842,26.0893,28.7062
i12_06_4.bmp,6,3.9394,0.8044,0.7706,0.2796,22.8416,25.0376
i12_07_1.bmp,7,4.6667,0.9692,0.9634,0.6642,31.7277,33.2489
i12_07_2.bmp,7,3.9688,0.9275,0.921,0.5264,27.4202,28.4531
i12_07_3.bmp,7,3.1471,0.9143,0.9077,0.4772,25.8381,26.8767
i12_07_4.bmp,7,3.2647,0.8601,0.8507,0.3966,21.674,22.3368
i12_08_1.bmp,8,5.6364,0.9917,0.9926,0.7458,31.2997,33.5718
i12_08_2.bmp,8,4.6471,0.9732,0.976,0.5368,26.5636,28.2674
i12_08_3.bmp,8,3.6176,0.9311,0.924,0.2936,22.6835,23.78
i12_08_4.bmp,8,2.6471,0.8611,0.825,0.116,19.4763,20.1498
i12_09_1.bmp,9,5.6364,0.9697,0.9653,0.4962,33.7304,36.7262
i12_09_2.bmp,9,4.9706,0.9396,0.9302,0.3335,30.2702,32.5185
i12_09_3.bmp,9,3.2121,0.889,0.874,0.1903,26.4263,27.9997
i12_09_4.bmp,9,2.2647,0.8183,0.8019,0.0999,20.2838,20.8689
i12_10_1.bmp,10,6.0606,0.9873,0.9889,0.7347,38.3547,44.9661
i12_10_2.bmp,10,5.2353,0.9631,0.9603,0.4617,32.3079,35.915
i12_10_3.bmp,10,2.9697,0.8924,0.8737,0.2019,26.7802,28.7287
i12_10_4.bmp,10,1.8485,0.8162,0.7882,0.1081,23.4748,24.6785
i12_11_1.bmp,11,4.8125,0.9503,0.9362,0.3025,29.6216,32.3875
i12_11_2.bmp,11,2.7813,0.8501,0.8249,0.1049,25.0225,26.5552
i12_11_3.bmp,11,1.2727,0.7725,0.7403,0.0411,21.16,22.0742
i12_11_4.bmp,11,0.0909,0.6543,0.6685,0.0164,18.1976,18.6953
i12_12_1.bmp,12,5.3824,0.9968,0.9952,0.9406,43.1695,46.2175
i12_12_2.bmp,12,3.5588,0.9125,0.9045,0.3982,26.2085,28.2438
i12_12_3.bmp,12,3.1471,0.8133,0.7781,0.3394,20.1358,20.8569
i12_12_4.bmp,12,3.2059,0.8702,0.8496,0.2725,19.1198,19.5471
i12_13_1.bmp,13,4.8788,0.9388,0.918,0.4445,30.0191,32.084
i12_13_2.bmp,13,3.6061,0.8119,0.7547,0.2725,24.7606,26.2694
i12_13_3.bmp,13,2.9091,0.6948,0.6045,0.2496,21.0001,22.1012
i12_13_4.bmp,13,4.4706,0.9287,0.9097,0.5517,29.021,30.7748
i12_14_1.bmp,14,6.5294,0.991,0.9881,0.8179,30.1407,32.1212
i12_14_2.bmp,14,4.5758,0.975,0.9663,0.6913,25.6295,26.9546
i12_14_3.bmp,14,4.4242,0.9542,0.9431,0.6369,24.1445,25.1266
i12_14_4.bmp,14,3.6364,0.9132,0.9039,0.532,21.7816,22.532
i12_15_1.bmp,15,3.0625,0.8729,0.9014,0.7551,19.9251,20.2519
i12_15_2.bmp,15,3.7059,0.9166,0.9455,0.8569,21.352,21.624
i12_15_3.bmp,15,4.2353,0.9447,0.9705,0.9299,22.201,22.4084
i12_15_4.bmp,15,4.4242,0.9685,0.9831,0.9585,22.7598,22.9754
i12_16_1.bmp,16,6.697,0.9993,0.9954,0.9839,25.5206,25.5368
i12_16_2.bmp,16,6.5758,0.9983,0.9884,0.9997,19.3046,19.3055
i12_16_3.bmp,16,6.4706,0.9932,0.9785,0.9163,16.0589,16.0704
i12_16_4.bmp,16,5.7941,0.9919,0.9503,0.9899,13.2953,13.2959
i12_17_1.bmp,17,6.9706,0.9887,0.986,1.0771,25.5694,25.9479
i12_17_2.bmp,17,5.697,0.9748,0.9765,0.827,22.8745,23.1526
i12_17_3.bmp,17,6.7941,0.9565,0.9446,1.093,18.9605,19.2068
i12_17_4.bmp,17,4.4848,0.8813,0.9053,0.6187,16.8721,17.0398
i13_01_1.bmp,1,5.9394,0.9923,0.9909,0.7385,34.834,41.9005
i13_01_2.bmp,1,5.5152,0.9848,0.9825,0.6302,31.8048,37.6073
i13_01_3.bmp,1,5.1515,0.9709,0.9661,0.5158,28.8025,33.571
i13_01_4.bmp,1,4.2727,0.9464,0.9362,0.4075,25.8317,29.7932
i13_02_1.bmp,2,5.5758,0.998,0.9972,0.8966,40.5837,49.7892
i13_02_2.bmp,2,6.0,0.996,0.995,0.8269,37.5534,45.4797
i13_02_3.bmp,2,5.7273,0.9921,0.9906,0.7337,34.5749,41.2187
i13_02_4.bmp,2,5.0625,0.9845,0.982,0.6233,31.5553,37.0131
i13_03_1.bmp,3,5.1212,0.9792,0.9652,0.5861,30.0408,33.4083
i13_03_2.bmp,3,4.6061,0.9596,0.9337,0.4726,26.9567,29.5986
i13_03_3.bmp,3,3.8235,0.926,0.8809,0.3698,24.0309,26.177
i13_03_4.bmp,3,3.0909,0.8672,0.7953,0.2762,20.9881,22.7298
i13_04_1.bmp,4,5.9706,0.9985,0.999,0.9267,39.3775,50.9576
i13_04_2.bmp,4,5.7576,0.997,0.9985,0.8776,36.2833,46.9859
i13_04_3.bmp,4,5.4848,0.9942,0.9975,0.8112,33.2718,42.6929
i13_04_4.bmp,4,5.0938,0.9881,0.9952,0.7173,29.9486,37.6266
i13_05_1.bmp,5,5.7647,0.9953,0.9967,0.8575,39.1268,49.53
i13_05_2.bmp,5,5.2941,0.9862,0.991,0.7098,34.1824,42.8099
i13_05_3.bmp,5,4.6061,0.962,0.9729,0.5235,29.1267,35.7412
i13_05_4.bmp,5,3.5455,0.9022,0.9165,0.3356,23.8166,28.4112
i13_06_1.bmp,6,4.4118,0.9916,0.99,0.75,34.3079,39.5725
i13_06_2.bmp,6,4.1176,0.9834,0.9798,0.6238,31.0949,35.8546
i13_06_3.bmp,6,3.7419,0.9683,0.9616,0.501,27.9315,31.8821
i13_06_4.bmp,6,3.2188,0.9399,0.9262,0.3827,24.7795,27.9569
i13_07_1.bmp,7,5.4706,0.9904,0.988,0.7092,33.2803,38.2927
i13_07_2.bmp,7,4.8485,0.9783,0.9722,0.5884,30.3367,34.6982
i13_07_3.bmp,7,3.3125,0.9554,0.9422,0.4745,26.8896,29.9671
i13_07_4.bmp,7,2.6765,0.8816,0.8617,0.3266,22.3182,24.3176
i13_08_1.bmp,8,4.0909,0.9816,0.9848,0.6548,27.5822,33.1513
i13_08_2.bmp,8,3.5152,0.9397,0.9414,0.4336,22.8112,26.1886
i13_08_3.bmp,8,2.9091,0.8414,0.807,0.2168,19.0192,21.0361
i13_08_4.bmp,8,2.1563,0.6803,0.5766,0.0673,16.3554,17.6375
i13_09_1.bmp,9,4.6129,0.9775,0.9749,0.5806,30.9468,36.1534
i13_09_2.bmp,9,3.6061,0.9328,0.9204,0.3743,25.9981,29.5837
i13_09_3.bmp,9,2.3939,0.8367,0.7926,0.1917,21.1622,23.5506
i13_09_4.bmp,9,0.6765,0.6495,0.5588,0.0641,16.6106,17.869
i13_10_1.bmp,10,5.8824,0.9888,0.9938,0.7294,35.4331,47.7583
i13_10_2.bmp,10,5.2424,0.9659,0.9712,0.4732,29.0637,36.7684
i13_10_3.bmp,10,2.9118,0.8919,0.8726,0.2287,22.6456,26.1688
i13_10_4.bmp,10,0.8788,0.7852,0.7199,0.1139,19.0391,21.0846
i13_11_1.bmp,11,5.8182,0.9956,0.9956,0.7737,35.2105,45.5856
i13_11_2.bmp,11,5.0909,0.9897,0.9862,0.5775,30.4737,37.9958
i13_11_3.bmp,11,4.3333,0.969,0.9548,0.3793,25.7307,30.6326
i13_11_4.bmp,11,2.3939,0.8251,0.7612,0.1288,20.0927,22.3354
i13_12_1.bmp,12,5.9412,0.9914,0.9865,0.9022,29.3978,31.505
i13_12_2.bmp,12,4.9412,0.9548,0.9253,0.7626,21.6717,22.2984
i13_12_3.bmp,12,5.4706,0.9649,0.9501,0.7828,24.183,26.2292
i13_12_4.bmp,12,5.2059,0.9283,0.8997,0.5926,20.3806,22.3808
i13_13_1.bmp,13,4.6471,0.9947,0.9901,0.8336,32.4042,37.9815
i13_13_2.bmp,13,5.0588,0.9426,0.9144,0.4556,25.7317,28.575
i13_13_3.bmp,13,3.8485,0.925,0.8781,0.3869,23.3628,25.9603
i13_13_4.bmp,13,2.6471,0.8036,0.6985,0.2361,18.5598,20.02
i13_14_1.bmp,14,6.0909,0.9837,0.9761,0.7846,24.1203,26.0236
i13_14_2.bmp,14,5.5455,0.949,0.929,0.6762,20.1555,21.3899
i13_14_3.bmp,14,5.3235,0.9135,0.892,0.6022,18.9596,20.0157
i13_14_4.bmp,14,4.0,0.8449,0.8334,0.5158,17.1533,17.9682
i13_15_1.bmp,15,2.6563,0.8924,0.9168,0.7723,20.69,21.4638
i13_15_2.bmp,15,2.8788,0.9347,0.9553,0.8764,22.3069,22.9433
i13_15_3.bmp,15,3.6176,0.9566,0.9752,0.9348,23.3845,23.7911
i13_15_4.bmp,15,3.8485,0.964,0.9849,0.9691,23.1018,23.3139
i13_16_1.bmp,16,5.9394,0.9989,0.9948,0.9745,25.472,25.5241
i13_16_2.bmp,16,6.0,0.9954,0.9774,0.996,19.3241,19.3255
i13_16_3.bmp,16,4.6364,0.9913,0.966,0.8779,15.9789,16.022
i13_16_4.bmp,16,4.9394,0.9751,0.8966,0.942,13.4018,13.4066
i13_17_1.bmp,17,6.7879,0.9868,0.9843,0.969,26.8474,28.1642
i13_17_2.bmp,17,4.5588,0.9654,0.9649,0.8552,22.8828,23.8223
i13_17_3.bmp,17,6.1765,0.9512,0.9408,0.8896,20.5761,21.526
i13_17_4.bmp,17,3.3939,0.8329,0.8393,0.671,16.8549,17.4464
i14_01_1.bmp,1,6.1818,0.9883,0.9884,0.7269,34.8055,40.7791
i14_01_2.bmp,1,4.9688,0.9775,0.9775,0.616,31.8096,36.7658
i14_01_3.bmp,1,4.9118,0.959,0.9576,0.5024,28.807,32.9774
i14_01_4.bmp,1,4.1515,0.9286,0.9225,0.3955,25.8524,29.418
i14_02_1.bmp,2,6.2813,0.9969,0.9965,0.8931,40.7687,49.2361
i14_02_2.bmp,2,5.8235,0.9939,0.9938,0.8199,37.7618,44.8709
i14_02_3.bmp,2,5.7647,0.9881,0.9883,0.7235,34.823,40.8721
i14_02_4.bmp,2,5.2647,0.9778,0.9776,0.6129,31.8077,36.7861
i14_03_1.bmp,3,4.9412,0.9742,0.9566,0.5657,30.0125,32.7661
i14_03_2.bmp,3,4.1471,0.951,0.9182,0.4514,26.9025,29.1233
i14_03_3.bmp,3,3.8529,0.9123,0.8575,0.3483,23.9353,25.7783
i14_03_4.bmp,3,3.1471,0.8528,0.7683,0.2592,20.9989,22.5608
i14_04_1.bmp,4,6.1515,0.9976,0.9989,0.9226,39.7334,54.5671
i14_04_2.bmp,4,5.8235,0.9953,0.9984,0.8713,36.6517,49.6341
i14_04_3.bmp,4,5.303,0.991,0.9973,0.7979,33.4881,43.9874
i14_04_4.bmp,4,4.4848,0.9827,0.9946,0.7011,30.2284,38.1283
i14_05_1.bmp,5,5.8529,0.9922,0.9958,0.854,39.3151,49.6769
i14_05_2.bmp,5,5.3529,0.9785,0.9886,0.7038,34.3949,42.7527
i14_05_3.bmp,5,4.5588,0.946,0.9665,0.5172,29.3667,35.7827
i14_05_4.bmp,5,3.5313,0.8763,0.9009,0.3324,24.0418,28.5216
i14_06_1.bmp,6,4.9375,0.9855,0.983,0.7117,32.7151,36.5194
i14_06_2.bmp,6,4.4848,0.9738,0.9687,0.5888,30.0702,33.743
i14_06_3.bmp,6,4.0909,0.9509,0.9416,0.4572,27.0073,30.3156
i14_06_4.bmp,6,3.697,0.9097,0.8918,0.3397,23.6916,26.4192
i14_07_1.bmp,7,5.4545,0.9854,0.9809,0.6886,33.2519,37.2273
i14_07_2.bmp,7,4.697,0.9655,0.9534,0.5489,29.1097,31.6996
i14_07_3.bmp,7,3.7879,0.9297,0.9097,0.433,25.7176,27.5399
i14_07_4.bmp,7,3.0294,0.882,0.8422,0.355,21.2084,22.5466
i14_08_1.bmp,8,4.9412,0.9902,0.9908,0.7084,30.9517,36.5087
i14_08_2.bmp,8,3.7647,0.9671,0.965,0.4931,25.8099,29.1117
i14_08_3.bmp,8,2.7647,0.9057,0.876,0.267,21.3836,23.2414
i14_08_4.bmp,8,1.9063,0.7834,0.6921,0.0975,18.1157,19.2179
i14_09_1.bmp,9,6.2941,0.9811,0.9775,0.5854,32.1675,36.7978
i14_09_2.bmp,9,5.0,0.9556,0.9433,0.4077,27.8913,31.178
i14_09_3.bmp,9,3.0882,0.8987,0.8613,0.2313,23.3234,25.4897
i14_09_4.bmp,9,1.5294,0.7703,0.6932,0.1072,18.4801,19.5212
i14_10_1.bmp,10,5.6667,0.9906,0.9936,0.7505,36.8743,47.3488
i14_10_2.bmp,10,5.0606,0.9735,0.9735,0.5013,30.4108,36.4493
i14_10_3.bmp,10,3.25,0.9188,0.8926,0.2542,24.0031,26.776
i14_10_4.bmp,10,1.6471,0.8356,0.7672,0.1365,20.3581,21.9389
i14_11_1.bmp,11,5.5758,0.9915,0.9895,0.636,32.8146,39.5414
i14_11_2.bmp,11,4.5152,0.9769,0.968,0.4365,28.3129,32.9502
i14_11_3.bmp,11,3.0588,0.9139,0.8737,0.2121,23.2547,25.5637
i14_11_4.bmp,11,0.9394,0.7755,0.6811,0.073,18.8909,20.1107
i14_12_1.bmp,12,6.0882,0.998,0.9975,0.9272,38.4098,41.3776
i14_12_2.bmp,12,4.4412,0.9983,0.9978,0.927,41.9749,47.9732
i14_12_3.bmp,12,4.0,0.9433,0.9245,0.597,22.9097,24.7254
i14_12_4.bmp,12,3.2121,0.8559,0.7884,0.4463,17.8387,18.8445
i14_13_1.bmp,13,4.9375,0.9824,0.9798,0.6988,31.4909,36.2219
i14_13_2.bmp,13,4.0606,0.9188,0.8668,0.4109,24.4661,26.0987
i14_13_3.bmp,13,3.6176,0.8753,0.8143,0.3359,22.636,24.3108
i14_13_4.bmp,13,2.1515,0.7689,0.6579,0.206,18.6175,19.7786
i14_14_1.bmp,14,6.1176,0.9871,0.9817,0.7905,26.3108,28.0609
i14_14_2.bmp,14,4.7879,0.9595,0.9375,0.6629,22.4165,23.5735
i14_14_3.bmp,14,4.2424,0.9287,0.9022,0.5794,20.519,21.4334
i14_14_4.bmp,14,3.3824,0.8726,0.8406,0.4789,18.6983,19.4369
i14_15_1.bmp,15,2.375,0.8967,0.9109,0.7859,20.4462,20.912
i14_15_2.bmp,15,3.1765,0.9377,0.95,0.8853,22.0431,22.3949
i14_15_3.bmp,15,3.7813,0.9647,0.9743,0.9352,23.7987,24.1249
i14_15_4.bmp,15,4.6667,0.9734,0.9857,0.9628,23.9167,24.1654
i14_16_1.bmp,16,6.1515,0.9995,0.9951,0.9931,25.3393,25.3511
i14_16_2.bmp,16,6.2424,0.9973,0.9774,0.9842,19.3438,19.3477
i14_16_3.bmp,16,5.7273,0.9954,0.97,0.9611,15.8312,15.8383
i14_16_4.bmp,16,5.2121,0.983,0.9008,0.8703,13.5267,13.5392
i14_17_1.bmp,17,6.9706,0.986,0.9835,1.056,25.5759,26.4164
i14_17_2.bmp,17,4.8485,0.9654,0.9657,0.8478,23.2674,23.946
i14_17_3.bmp,17,7.2941,0.9502,0.9369,1.02,19.2941,19.8743
i14_17_4.bmp,17,3.9063,0.8315,0.8457,0.6576,17.2521,17.6641
i15_01_1.bmp,1,5.4857,0.9726,0.9752,0.6932,34.9008,38.3172
i15_01_2.bmp,1,5.1714,0.9495,0.954,0.5724,31.9234,34.8947
i15_01_3.bmp,1,4.5429,0.9126,0.9165,0.4564,28.9321,31.5628
i15_01_4.bmp,1,4.25,0.8574,0.8536,0.3568,25.9863,28.3288
i15_02_1.bmp,2,6.2059,0.9923,0.9922,0.8731,40.3867,44.3799
i15_02_2.bmp,2,5.8235,0.985,0.986,0.7917,37.3654,40.7386
i15_02_3.bmp,2,5.2286,0.9719,0.9746,0.6844,34.3228,37.2319
i15_02_4.bmp,2,4.6667,0.9484,0.9525,0.5628,31.2065,33.6595
i15_03_1.bmp,3,4.5,0.938,0.9133,0.5171,30.2684,31.9541
i15_03_2.bmp,3,3.9429,0.8877,0.843,0.3982,27.2037,28.6466
i15_03_3.bmp,3,3.3611,0.8166,0.7452,0.3067,24.2858,25.5928
i15_03_4.bmp,3,2.8611,0.7205,0.6202,0.221,21.3872,22.5928
i15_04_1.bmp,4,6.3889,0.9961,0.9974,0.8951,38.0917,44.4171
i15_04_2.bmp,4,6.3889,0.9925,0.9961,0.8355,34.8594,40.1579
i15_04_3.bmp,4,5.8857,0.9859,0.9933,0.7549,31.5432,35.7475
i15_04_4.bmp,4,5.4857,0.9742,0.9869,0.6534,28.2593,31.4806
i15_05_1.bmp,5,6.4722,0.9825,0.9907,0.8297,38.8788,43.8208
i15_05_2.bmp,5,5.6111,0.9537,0.9748,0.6614,33.8497,37.8786
i15_05_3.bmp,5,4.8056,0.8924,0.9287,0.4649,28.6337,31.7431
i15_05_4.bmp,5,3.6944,0.7792,0.8077,0.2868,22.9778,25.126
i15_06_1.bmp,6,4.6857,0.963,0.9604,0.6506,32.6192,35.7319
i15_06_2.bmp,6,4.2647,0.9296,0.9243,0.5248,29.3601,32.0884
i15_06_3.bmp,6,3.8286,0.8771,0.8629,0.399,26.2433,28.6449
i15_06_4.bmp,6,3.3611,0.8037,0.7722,0.2927,22.9734,24.9149
i15_07_1.bmp,7,4.1143,0.9627,0.9616,0.6526,31.2036,32.4649
i15_07_2.bmp,7,3.9714,0.953,0.9509,0.5527,30.3023,31.7261
i15_07_3.bmp,7,3.1389,0.9125,0.9058,0.4712,25.7142,26.7358
i15_07_4.bmp,7,2.6944,0.8375,0.8294,0.3877,20.6379,21.2502
i15_08_1.bmp,8,6.1389,0.9946,0.9946,0.763,33.3598,36.3729
i15_08_2.bmp,8,5.1176,0.9835,0.9831,0.5639,28.4475,30.6016
i15_08_3.bmp,8,4.4722,0.9573,0.9465,0.3345,24.2117,25.5812
i15_08_4.bmp,8,3.6857,0.9087,0.8731,0.1594,20.6652,21.4922
i15_09_1.bmp,9,5.8571,0.9804,0.978,0.5241,34.4561,37.4596
i15_09_2.bmp,9,5.1714,0.9631,0.9559,0.375,30.504,32.5646
i15_09_3.bmp,9,3.9118,0.9287,0.9107,0.2344,25.419,26.511
i15_09_4.bmp,9,2.4286,0.8499,0.8149,0.1339,18.3444,18.6785
i15_10_1.bmp,10,6.2857,0.9889,0.9902,0.7117,38.6911,44.6898
i15_10_2.bmp,10,5.1143,0.9722,0.9695,0.458,33.0231,36.7494
i15_10_3.bmp,10,3.5,0.9183,0.8958,0.2234,27.1821,29.0768
i15_10_4.bmp,10,1.8824,0.8477,0.8093,0.1365,23.5435,24.6546
i15_11_1.bmp,11,4.7222,0.9566,0.9431,0.2919,29.8111,32.4481
i15_11_2.bmp,11,3.0,0.9019,0.8705,0.137,25.2339,26.8009
i15_11_3.bmp,11,1.8889,0.8028,0.7687,0.0589,21.0528,21.9186
i15_11_4.bmp,11,0.3429,0.7062,0.6968,0.0312,17.9335,18.4313
i15_12_1.bmp,12,5.6571,0.965,0.9486,0.7157,27.144,28.2671
i15_12_2.bmp,12,4.3143,0.9216,0.9091,0.3186,25.6627,27.9505
i15_12_3.bmp,12,3.2778,0.8889,0.8492,0.3081,20.1995,20.8027
i15_12_4.bmp,12,2.5714,0.7618,0.6931,0.105,16.922,17.5567
i15_13_1.bmp,13,4.2286,0.9113,0.8856,0.4679,28.636,30.4138
i15_13_2.bmp,13,3.4722,0.8684,0.7941,0.4151,24.3533,25.7343
i15_13_3.bmp,13,2.8333,0.7399,0.657,0.3303,20.1658,20.9986
i15_13_4.bmp,13,1.6111,0.5453,0.4144,0.1396,17.4346,18.2571
i15_14_1.bmp,14,6.2571,0.9918,0.9893,0.7943,30.9745,32.8948
i15_14_2.bmp,14,6.25,0.9768,0.9679,0.6735,26.5994,27.8556
i15_14_3.bmp,14,5.0588,0.965,0.9541,0.607,25.3351,26.394
i15_14_4.bmp,14,3.9706,0.9402,0.9295,0.5393,23.4626,24.2888
i15_15_1.bmp,15,3.3714,0.8869,0.9093,0.7416,19.7246,19.9811
i15_15_2.bmp,15,3.6765,0.9235,0.9453,0.8399,20.6901,20.8915
i15_15_3.bmp,15,4.4857,0.9522,0.9698,0.9124,21.1747,21.3337
i15_15_4.bmp,15,4.5,0.9754,0.9856,0.9613,23.3048,23.4282
i15_16_1.bmp,16,6.25,0.9983,0.9887,0.9855,25.7442,25.7713
i15_16_2.bmp,16,5.5278,0.9856,0.9472,0.932,19.5674,19.5765
i15_16_3.bmp,16,5.7778,0.9889,0.9399,0.9475,16.2271,16.2433
i15_16_4.bmp,16,4.3824,0.9126,0.799,0.7326,14.0473,14.0606
i15_17_1.bmp,17,6.5,0.9896,0.9834,1.0237,28.0789,28.6126
i15_17_2.bmp,17,5.4444,0.9736,0.9699,0.8203,20.7722,20.9575
i15_17_3.bmp,17,6.5278,0.9607,0.942,0.9936,22.207,22.6069
i15_17_4.bmp,17,4.2222,0.8754,0.8866,0.6077,14.801,14.9119
i16_01_1.bmp,1,5.4839,0.9711,0.9736,0.6848,34.82,38.5582
i16_01_2.bmp,1,5.5484,0.9461,0.9499,0.5669,31.774,35.0042
i16_01_3.bmp,1,4.6774,0.9051,0.9074,0.4486,28.7858,31.6331
i16_01_4.bmp,1,4.2333,0.8423,0.8344,0.3414,25.7491,28.2954
i16_02_1.bmp,2,6.0968,0.9923,0.9919,0.8742,40.7343,45.749
i16_02_2.bmp,2,5.9667,0.9848,0.9856,0.7902,37.7277,42.0286
i16_02_3.bmp,2,5.2414,0.9709,0.9733,0.6817,34.7586,38.4544
i16_02_4.bmp,2,4.8387,0.9463,0.9497,0.5633,31.7367,34.9533
i16_03_1.bmp,3,4.6452,0.9313,0.906,0.512,29.9963,31.7209
i16_03_2.bmp,3,3.9333,0.8732,0.8293,0.3918,26.8672,28.3087
i16_03_3.bmp,3,3.4839,0.7944,0.7239,0.2994,23.943,25.2409
i16_03_4.bmp,3,3.0,0.6783,0.5808,0.2131,20.8313,22.024
i16_04_1.bmp,4,6.1935,0.9956,0.9974,0.9058,39.8872,51.4169
i16_04_2.bmp,4,5.3333,0.9916,0.9962,0.8465,36.8378,46.3799
i16_04_3.bmp,4,5.1,0.9841,0.9938,0.7657,33.7358,41.2901
i16_04_4.bmp,4,4.5333,0.9711,0.9887,0.6645,30.6246,36.4619
i16_05_1.bmp,5,6.2667,0.9823,0.9905,0.8301,39.2823,46.0095
i16_05_2.bmp,5,5.4516,0.9529,0.9741,0.6631,34.3463,39.9418
i16_05_3.bmp,5,4.5806,0.8878,0.9259,0.4669,29.2977,33.9361
i16_05_4.bmp,5,3.6129,0.7654,0.7999,0.286,24.0657,27.8616
i16_06_1.bmp,6,5.0667,0.9746,0.9736,0.6868,33.6273,36.7385
i16_06_2.bmp,6,4.7097,0.956,0.9515,0.5623,30.9486,33.8715
i16_06_3.bmp,6,4.1667,0.9167,0.9075,0.4249,27.7915,30.4577
i16_06_4.bmp,6,3.9,0.8494,0.8321,0.3101,24.7559,27.1022
i16_07_1.bmp,7,4.5484,0.9578,0.9563,0.6063,32.0901,33.9687
i16_07_2.bmp,7,4.0968,0.9156,0.9139,0.4613,28.0149,29.3378
i16_07_3.bmp,7,3.7333,0.8584,0.861,0.4044,23.9122,24.8645
i16_07_4.bmp,7,2.9677,0.792,0.793,0.2671,21.1794,21.7604
i16_08_1.bmp,8,5.4516,0.9918,0.9924,0.7457,33.6521,36.835
i16_08_2.bmp,8,4.1613,0.9738,0.9749,0.5361,28.9814,31.1352
i16_08_3.bmp,8,3.4,0.9344,0.923,0.2958,25.3785,26.7798
i16_08_4.bmp,8,2.7,0.8721,0.8324,0.1196,22.718,23.61
i16_09_1.bmp,9,5.871,0.9743,0.9695,0.4925,33.8925,37.1762
i16_09_2.bmp,9,4.6667,0.9476,0.9386,0.3251,30.2782,32.679
i16_09_3.bmp,9,3.2333,0.8955,0.8749,0.1687,26.5593,28.1543
i16_09_4.bmp,9,2.0,0.8072,0.7842,0.0769,22.2645,22.9903
i16_10_1.bmp,10,6.2667,0.9888,0.9897,0.7236,38.5908,45.4315
i16_10_2.bmp,10,5.129,0.9665,0.9635,0.4544,32.4168,36.2522
i16_10_3.bmp,10,3.0645,0.8939,0.8751,0.1946,26.5865,28.3304
i16_10_4.bmp,10,2.1333,0.8048,0.7728,0.0918,23.2734,24.2379
i16_11_1.bmp,11,4.7,0.9621,0.9428,0.3213,29.9058,32.56
i16_11_2.bmp,11,2.7097,0.8582,0.8211,0.0769,24.7758,26.0679
i16_11_3.bmp,11,1.0,0.7118,0.6988,0.0156,21.0588,21.6757
i16_11_4.bmp,11,0.0,0.6118,0.6629,0.0077,19.2276,19.6329
i16_12_1.bmp,12,5.9677,0.975,0.9663,0.6771,30.834,32.8509
i16_12_2.bmp,12,4.8276,0.9277,0.9115,0.3812,26.484,28.4447
i16_12_3.bmp,12,3.2258,0.792,0.7265,0.1439,20.7185,21.6237
i16_12_4.bmp,12,2.4667,0.6631,0.5624,0.0708,19.0854,19.9794
i16_13_1.bmp,13,4.3667,0.8817,0.8372,0.3805,27.3992,28.7564
i16_13_2.bmp,13,4.6667,0.8992,0.8624,0.4004,26.379,28.2108
i16_13_3.bmp,13,3.0968,0.6474,0.5355,0.1809,20.5804,21.5672
i16_13_4.bmp,13,3.6667,0.7875,0.7003,0.2457,22.0151,24.0451
i16_14_1.bmp,14,6.3,0.9878,0.9821,0.7891,31.7276,33.5825
i16_14_2.bmp,14,6.3103,0.9729,0.9611,0.6963,28.2876,29.5278
i16_14_3.bmp,14,5.5,0.9536,0.9374,0.6041,26.2545,27.2476
i16_14_4.bmp,14,4.5862,0.9232,0.9069,0.5258,24.6976,25.5042
i16_15_1.bmp,15,3.2581,0.8933,0.9274,0.7387,23.3152,23.6692
i16_15_2.bmp,15,3.4516,0.9058,0.9496,0.8384,23.3042,23.5653
i16_15_3.bmp,15,4.0968,0.9239,0.967,0.9002,22.8868,23.0778
i16_15_4.bmp,15,4.4516,0.935,0.9807,0.9475,22.7883,22.9329
i16_16_1.bmp,16,6.1724,0.999,0.9945,0.9889,25.3563,25.3661
i16_16_2.bmp,16,5.9677,0.9976,0.9836,0.9991,19.3012,19.3022
i16_16_3.bmp,16,6.1935,0.9902,0.9703,0.9495,15.8629,15.8669
i16_16_4.bmp,16,5.0645,0.9884,0.9275,0.987,13.298,13.2986
i16_17_1.bmp,17,7.129,0.9874,0.987,1.0791,27.7981,28.1953
i16_17_2.bmp,17,5.0645,0.9764,0.9796,0.8206,25.1214,25.383
i16_17_3.bmp,17,6.7742,0.952,0.9524,1.147,21.4838,21.7812
i16_17_4.bmp,17,4.1613,0.8893,0.9152,0.6071,19.1104,19.2734
i17_01_1.bmp,1,5.6857,0.9777,0.9804,0.7015,34.9644,39.4618
i17_01_2.bmp,1,5.2222,0.959,0.9633,0.5803,31.9362,35.8099
i17_01_3.bmp,1,4.6,0.9305,0.9356,0.4658,29.0456,32.4285
i17_01_4.bmp,1,4.1429,0.8856,0.8864,0.361,26.0218,28.9022
i17_02_1.bmp,2,6.4444,0.9938,0.9938,0.8772,40.7789,46.6183
i17_02_2.bmp,2,5.8,0.9881,0.9891,0.7975,37.8477,43.0049
i17_02_3.bmp,2,5.4706,0.9778,0.9804,0.6952,34.8369,39.1528
i17_02_4.bmp,2,4.9444,0.9596,0.9636,0.5755,31.7232,35.2993
i17_03_1.bmp,3,4.6286,0.9501,0.9289,0.52,30.0918,32.1632
i17_03_2.bmp,3,4.0571,0.9109,0.8735,0.4037,27.0334,28.7802
i17_03_3.bmp,3,3.6571,0.8555,0.7964,0.3069,24.2028,25.7388
i17_03_4.bmp,3,3.0,0.7735,0.6846,0.2221,21.2409,22.5968
i17_04_1.bmp,4,6.0556,0.9971,0.9984,0.911,39.5168,52.2473
i17_04_2.bmp,4,5.9143,0.9944,0.9977,0.8575,36.4045,46.659
i17_04_3.bmp,4,5.4444,0.9892,0.9963,0.7832,33.2121,40.9606
i17_04_4.bmp,4,4.5714,0.9797,0.9929,0.6904,30.0086,35.7266
i17_05_1.bmp,5,6.3333,0.9853,0.9926,0.8372,39.3659,47.079
i17_05_2.bmp,5,5.3333,0.9621,0.9805,0.675,34.3782,40.4403
i17_05_3.bmp,5,4.9429,0.9115,0.944,0.4826,29.0274,33.3044
i17_05_4.bmp,5,3.6667,0.8126,0.8444,0.3025,23.2858,26.0985
i17_06_1.bmp,6,4.8824,0.9711,0.9697,0.7066,33.4434,36.737
i17_06_2.bmp,6,4.4857,0.9456,0.9432,0.5691,30.1542,33.1584
i17_06_3.bmp,6,3.9143,0.9069,0.9004,0.4532,27.1554,29.7724
i17_06_4.bmp,6,3.7429,0.8457,0.8289,0.3382,23.8436,25.9909
i17_07_1.bmp,7,4.75,0.9635,0.9599,0.6699,31.8127,33.96
i17_07_2.bmp,7,4.0857,0.9293,0.9101,0.5172,26.754,27.9717
i17_07_3.bmp,7,3.2857,0.8974,0.856,0.3737,23.0249,23.8889
i17_07_4.bmp,7,2.7429,0.8294,0.7825,0.2512,20.6891,21.4112
i17_08_1.bmp,8,5.9143,0.9952,0.9947,0.7739,33.5558,38.1724
i17_08_2.bmp,8,4.8235,0.984,0.9819,0.5814,28.4021,31.2549
i17_08_3.bmp,8,3.8788,0.9514,0.9335,0.3482,23.9009,25.5344
i17_08_4.bmp,8,3.0833,0.8748,0.818,0.1501,20.4398,21.3973
i17_09_1.bmp,9,6.1389,0.9832,0.9787,0.567,34.1803,37.8421
i17_09_2.bmp,9,5.3235,0.9656,0.9546,0.4058,30.0846,32.652
i17_09_3.bmp,9,3.8889,0.9218,0.8901,0.2433,24.7216,26.1499
i17_09_4.bmp,9,2.5429,0.8184,0.7431,0.118,18.3586,18.8682
i17_10_1.bmp,10,6.1667,0.9918,0.9925,0.751,38.4721,45.7635
i17_10_2.bmp,10,5.4167,0.9774,0.9746,0.506,32.2574,36.7195
i17_10_3.bmp,10,3.3824,0.9294,0.9068,0.2511,25.9601,28.1044
i17_10_4.bmp,10,1.9714,0.8303,0.7747,0.1409,21.8879,23.0438
i17_11_1.bmp,11,5.4286,0.975,0.965,0.4147,30.3573,34.1376
i17_11_2.bmp,11,3.3429,0.917,0.8787,0.1876,24.8934,26.6606
i17_11_3.bmp,11,2.2222,0.816,0.749,0.0762,20.5568,21.5041
i17_11_4.bmp,11,0.0857,0.6204,0.582,0.0166,17.4976,18.037
i17_12_1.bmp,12,6.2,0.9773,0.9698,0.7355,29.4029,31.409
i17_12_2.bmp,12,5.2,0.9633,0.9505,0.6484,24.7335,25.5061
i17_12_3.bmp,12,3.9444,0.8576,0.7985,0.4289,19.7081,20.3689
i17_12_4.bmp,12,2.1944,0.721,0.6193,0.0886,16.723,17.4332
i17_13_1.bmp,13,4.2571,0.9762,0.9722,0.652,31.2644,35.1972
i17_13_2.bmp,13,3.3333,0.8348,0.7661,0.3443,23.9605,25.2167
i17_13_3.bmp,13,2.8857,0.7074,0.6458,0.2606,19.3973,20.0492
i17_13_4.bmp,13,2.2,0.7265,0.5931,0.2372,18.4503,19.6934
i17_14_1.bmp,14,6.2571,0.99,0.986,0.7488,28.0703,30.0255
i17_14_2.bmp,14,5.4857,0.9729,0.962,0.6614,24.6445,25.8305
i17_14_3.bmp,14,4.2222,0.956,0.9402,0.6063,24.1061,24.9879
i17_14_4.bmp,14,3.4444,0.9173,0.9009,0.5082,21.0665,21.7842
i17_15_1.bmp,15,2.9722,0.8908,0.9112,0.7202,20.9288,21.3324
i17_15_2.bmp,15,3.7143,0.9348,0.9509,0.8313,22.0164,22.3641
i17_15_3.bmp,15,3.7778,0.9506,0.9712,0.9013,22.0994,22.3327
i17_15_4.bmp,15,3.8571,0.9693,0.9843,0.9404,21.9381,22.0977
i17_16_1.bmp,16,6.1429,0.9983,0.9878,0.9956,25.3188,25.3273
i17_16_2.bmp,16,5.7222,0.9811,0.9453,0.9241,19.8015,19.8119
i17_16_3.bmp,16,5.9167,0.9905,0.9364,0.9779,15.7864,15.7899
i17_16_4.bmp,16,4.6857,0.9379,0.8665,0.805,14.3558,14.3726
i17_17_1.bmp,17,6.9429,0.9852,0.9702,1.059,25.3233,25.7409
i17_17_2.bmp,17,5.3611,0.9695,0.9592,0.828,22.9511,23.2854
i17_17_3.bmp,17,6.9444,0.9421,0.9179,1.0496,19.3194,19.646
i17_17_4.bmp,17,4.0857,0.8571,0.8473,0.6216,16.9143,17.1157
i18_01_1.bmp,1,5.6452,0.9858,0.9866,0.7269,34.8687,40.6416
i18_01_2.bmp,1,5.129,0.9728,0.9739,0.6144,31.7915,36.5857
i18_01_3.bmp,1,4.7188,0.9518,0.9529,0.5063,28.9281,33.0709
i18_01_4.bmp,1,3.9667,0.9162,0.9118,0.3923,25.8343,29.2766
i18_02_1.bmp,2,6.5806,0.9962,0.9959,0.8909,40.6643,48.2196
i18_02_2.bmp,2,5.7813,0.9925,0.9927,0.8174,37.7157,44.3154
i18_02_3.bmp,2,5.4516,0.9857,0.9865,0.7226,34.7302,40.2956
i18_02_4.bmp,2,4.8065,0.9727,0.9741,0.6116,31.6909,36.2772
i18_03_1.bmp,3,4.5625,0.9671,0.9502,0.5632,29.9904,32.6981
i18_03_2.bmp,3,4.2188,0.9386,0.9077,0.4488,26.9135,29.0767
i18_03_3.bmp,3,3.7742,0.8924,0.8409,0.3451,23.9464,25.749
i18_03_4.bmp,3,3.0,0.8223,0.7463,0.2555,21.0436,22.5905
i18_04_1.bmp,4,6.6774,0.9977,0.9988,0.9196,38.8191,48.3855
i18_04_2.bmp,4,6.1563,0.9955,0.9982,0.869,35.6901,44.3277
i18_04_3.bmp,4,5.3438,0.9912,0.997,0.7976,32.4524,39.6265
i18_04_4.bmp,4,4.6333,0.983,0.9941,0.7031,29.1643,34.7567
i18_05_1.bmp,5,6.1563,0.9908,0.9952,0.8524,39.2631,48.5883
i18_05_2.bmp,5,5.5,0.9749,0.9868,0.7006,34.3331,42.0328
i18_05_3.bmp,5,4.5625,0.9379,0.9612,0.5108,29.2518,35.1125
i18_05_4.bmp,5,3.7097,0.8599,0.886,0.324,23.7947,27.6383
i18_06_1.bmp,6,4.7742,0.9776,0.9738,0.6747,31.5916,35.0961
i18_06_2.bmp,6,4.5161,0.96,0.9536,0.5431,28.6439,31.9332
i18_06_3.bmp,6,4.0,0.9241,0.9131,0.4142,25.6035,28.5564
i18_06_4.bmp,6,3.6563,0.8674,0.8438,0.3064,22.3982,24.8608
i18_07_1.bmp,7,4.9677,0.9798,0.9781,0.693,32.5604,35.3681
i18_07_2.bmp,7,4.0625,0.9515,0.9447,0.5613,28.1167,30.1688
i18_07_3.bmp,7,3.7188,0.9302,0.922,0.4605,25.7215,27.4023
i18_07_4.bmp,7,3.0313,0.8871,0.8746,0.3804,21.7788,22.8865
i18_08_1.bmp,8,5.0313,0.9909,0.9908,0.72,31.1413,37.4898
i18_08_2.bmp,8,4.0938,0.9687,0.9646,0.5044,25.9289,29.5491
i18_08_3.bmp,8,3.0313,0.9044,0.8706,0.2723,21.3642,23.3119
i18_08_4.bmp,8,2.125,0.7697,0.6759,0.0943,18.0211,19.1588
i18_09_1.bmp,9,6.1563,0.9816,0.9781,0.5847,32.2234,36.8291
i18_09_2.bmp,9,4.7813,0.9529,0.9387,0.3995,27.5287,30.6297
i18_09_3.bmp,9,3.0938,0.8731,0.8271,0.215,22.6914,24.5958
i18_09_4.bmp,9,1.5161,0.7191,0.6364,0.0902,17.5836,18.4491
i18_10_1.bmp,10,6.0667,0.9906,0.9932,0.7476,36.8585,45.8893
i18_10_2.bmp,10,5.1875,0.9738,0.9737,0.4985,30.4723,36.4698
i18_10_3.bmp,10,3.3226,0.9165,0.892,0.2529,24.0137,26.7804
i18_10_4.bmp,10,1.6774,0.8243,0.7633,0.1338,20.4032,22.0115
i18_11_1.bmp,11,6.0938,0.9908,0.9879,0.6122,32.5924,39.6015
i18_11_2.bmp,11,4.5161,0.973,0.9636,0.4228,28.1683,32.6012
i18_11_3.bmp,11,2.9677,0.8883,0.8324,0.1799,22.5165,24.583
i18_11_4.bmp,11,0.5313,0.6665,0.5664,0.0408,17.9026,18.9659
i18_12_1.bmp,12,6.0,0.9573,0.9352,0.8243,25.9687,26.4855
i18_12_2.bmp,12,5.9677,0.9533,0.9357,0.7056,26.4099,28.3851
i18_12_3.bmp,12,4.6875,0.9231,0.8983,0.5412,23.1543,25.2145
i18_12_4.bmp,12,2.8065,0.7277,0.6267,0.2271,15.5817,16.1402
i18_13_1.bmp,13,4.7419,0.9656,0.9471,0.6603,27.6661,30.5254
i18_13_2.bmp,13,3.875,0.9511,0.9491,0.6132,27.2425,30.9883
i18_13_3.bmp,13,3.0645,0.853,0.7722,0.3179,21.5655,23.2484
i18_13_4.bmp,13,2.5938,0.7425,0.6286,0.16,18.8688,20.252
i18_14_1.bmp,14,6.129,0.9884,0.9839,0.7942,26.6309,28.5453
i18_14_2.bmp,14,4.0625,0.9535,0.9381,0.6692,22.4717,23.6167
i18_14_3.bmp,14,4.25,0.9241,0.9009,0.5933,20.9993,21.9176
i18_14_4.bmp,14,3.1613,0.8692,0.8515,0.4946,18.7509,19.5104
i18_15_1.bmp,15,2.9688,0.8853,0.9121,0.7725,19.6184,20.1285
i18_15_2.bmp,15,3.7742,0.9308,0.9535,0.8737,21.0341,21.492
i18_15_3.bmp,15,4.1935,0.958,0.9768,0.9279,21.9986,22.3705
i18_15_4.bmp,15,4.6875,0.9623,0.9854,0.9615,22.708,22.8832
i18_16_1.bmp,16,6.7188,0.9988,0.992,0.9902,25.3863,25.409
i18_16_2.bmp,16,5.9063,0.9924,0.9591,0.9662,19.414,19.4217
i18_16_3.bmp,16,5.6774,0.9915,0.952,0.9566,15.8606,15.8763
i18_16_4.bmp,16,4.5333,0.9429,0.8233,0.7828,13.7259,13.7473
i18_17_1.bmp,17,6.4375,0.9881,0.9857,1.0432,28.12,29.4668
i18_17_2.bmp,17,5.0938,0.9674,0.968,0.8467,24.4752,25.4231
i18_17_3.bmp,17,6.0,0.9562,0.9478,1.0179,21.7903,22.7219
i18_17_4.bmp,17,4.1935,0.8428,0.8564,0.6558,18.473,19.046
i19_01_1.bmp,1,5.5313,0.983,0.9838,0.7444,34.8607,40.2742
i19_01_2.bmp,1,5.0323,0.9682,0.969,0.6421,31.8181,36.5224
i19_01_3.bmp,1,4.6563,0.9432,0.9425,0.5349,28.8494,32.9916
i19_01_4.bmp,1,3.9063,0.9039,0.8962,0.4318,25.8007,29.3919
i19_02_1.bmp,2,6.0323,0.9954,0.995,0.8981,40.7383,47.6239
i19_02_2.bmp,2,5.7742,0.9909,0.9911,0.8306,37.7901,43.9239
i19_02_3.bmp,2,5.1935,0.9826,0.9834,0.7434,34.8056,40.1569
i19_02_4.bmp,2,4.8125,0.9677,0.9689,0.638,31.7809,36.4312
i19_03_1.bmp,3,4.2258,0.9596,0.9408,0.5948,29.9877,32.7273
i19_03_2.bmp,3,3.7097,0.9258,0.8929,0.4872,26.9358,29.2384
i19_03_3.bmp,3,3.4063,0.8757,0.8219,0.3906,23.9672,25.9209
i19_03_4.bmp,3,2.6774,0.8052,0.7299,0.3035,21.0006,22.6849
i19_04_1.bmp,4,6.0968,0.9982,0.9987,0.9177,38.801,52.7744
i19_04_2.bmp,4,5.9063,0.9965,0.9981,0.8681,35.6713,47.2238
i19_04_3.bmp,4,5.5625,0.994,0.9973,0.8164,33.1232,42.4712
i19_04_4.bmp,4,5.1563,0.986,0.9939,0.7121,28.9181,35.0945
i19_05_1.bmp,5,5.9688,0.9894,0.9941,0.8603,39.3201,47.9332
i19_05_2.bmp,5,5.0968,0.9714,0.9839,0.718,34.3824,41.7142
i19_05_3.bmp,5,4.3548,0.9312,0.9534,0.5408,29.3131,35.3108
i19_05_4.bmp,5,3.4688,0.8522,0.8717,0.3627,23.9199,28.3794
i19_06_1.bmp,6,4.9375,0.9861,0.9855,0.7458,34.4148,39.3675
i19_06_2.bmp,6,4.4688,0.9716,0.9703,0.6221,31.102,35.5088
i19_06_3.bmp,6,3.7742,0.9505,0.9469,0.5135,28.1966,32.0018
i19_06_4.bmp,6,3.5313,0.9079,0.8988,0.3982,24.78,27.8406
i19_07_1.bmp,7,4.5,0.9762,0.9744,0.7212,32.7405,35.5648
i19_07_2.bmp,7,4.0,0.962,0.957,0.6007,29.2415,31.3879
i19_07_3.bmp,7,3.4375,0.9378,0.9332,0.5209,25.2523,26.6003
i19_07_4.bmp,7,2.9688,0.8954,0.889,0.4221,21.8501,22.8848
i19_08_1.bmp,8,4.9688,0.9891,0.9884,0.7149,28.3656,32.0219
i19_08_2.bmp,8,3.7667,0.962,0.9546,0.5175,23.1661,25.355
i19_08_3.bmp,8,3.2258,0.8899,0.8464,0.2939,18.7289,19.9913
i19_08_4.bmp,8,2.3438,0.7445,0.6669,0.108,15.5438,16.3276
i19_09_1.bmp,9,6.125,0.9833,0.9805,0.6135,33.5067,38.2331
i19_09_2.bmp,9,5.1333,0.9657,0.9575,0.4666,29.7049,33.2263
i19_09_3.bmp,9,3.3871,0.9274,0.9062,0.3072,25.2747,27.7093
i19_09_4.bmp,9,1.875,0.8333,0.7942,0.1679,19.3876,20.5326
i19_10_1.bmp,10,6.129,0.9916,0.9931,0.7633,37.6655,46.5041
i19_10_2.bmp,10,5.2903,0.9767,0.9756,0.5263,31.3446,37.3862
i19_10_3.bmp,10,3.1563,0.9272,0.9108,0.2904,24.9917,28.2138
i19_10_4.bmp,10,1.4194,0.8548,0.8163,0.1746,21.0535,22.904
i19_11_1.bmp,11,5.5806,0.9871,0.9818,0.5497,31.2769,36.7989
i19_11_2.bmp,11,4.5938,0.9725,0.9621,0.4021,27.3788,31.6126
i19_11_3.bmp,11,2.8333,0.9142,0.8698,0.2076,22.8061,25.1235
i19_11_4.bmp,11,0.7742,0.7848,0.7145,0.0806,18.0881,19.2437
i19_12_1.bmp,12,5.9677,0.9812,0.9746,0.8421,28.7019,30.8363
i19_12_2.bmp,12,5.1875,0.9759,0.9686,0.7563,27.4648,29.7481
i19_12_3.bmp,12,5.125,0.9397,0.9101,0.7112,18.8895,19.3264
i19_12_4.bmp,12,4.4375,0.9243,0.8938,0.488,20.4357,21.9682
i19_13_1.bmp,13,4.2667,0.9545,0.9348,0.6871,29.5106,32.3706
i19_13_2.bmp,13,3.8438,0.934,0.9067,0.5576,25.9504,28.4927
i19_13_3.bmp,13,3.4063,0.8614,0.796,0.394,22.2752,24.2479
i19_13_4.bmp,13,2.4063,0.7269,0.6073,0.2388,17.3355,18.3389
i19_14_1.bmp,14,6.3871,0.9893,0.9857,0.8165,27.2396,29.0634
i19_14_2.bmp,14,5.9,0.9728,0.9627,0.7116,23.655,24.8851
i19_14_3.bmp,14,5.2258,0.952,0.9357,0.6268,21.6774,22.7636
i19_14_4.bmp,14,3.9063,0.9297,0.9111,0.5608,19.8005,20.706
i19_15_1.bmp,15,2.8387,0.8906,0.9105,0.755,19.0952,19.6409
i19_15_2.bmp,15,3.2667,0.9366,0.9523,0.8714,20.8731,21.2966
i19_15_3.bmp,15,3.9355,0.9591,0.9754,0.9327,22.6002,22.9911
i19_15_4.bmp,15,4.4194,0.9662,0.9867,0.9654,23.495,23.8012
i19_16_1.bmp,16,6.625,0.9996,0.9958,0.9894,25.4005,25.4141
i19_16_2.bmp,16,5.8667,0.9983,0.9844,0.9919,19.3198,19.3221
i19_16_3.bmp,16,6.0625,0.9955,0.9759,0.9223,15.986,16.0021
i19_16_4.bmp,16,5.0333,0.9908,0.9318,0.9368,13.374,13.38
i19_17_1.bmp,17,6.4375,0.9882,0.9862,1.0336,24.8836,25.8781
i19_17_2.bmp,17,5.0,0.9688,0.9696,0.8573,22.176,22.8921
i19_17_3.bmp,17,6.25,0.9577,0.9509,0.9453,18.9238,19.5849
i19_17_4.bmp,17,3.6774,0.849,0.8651,0.6791,16.1599,16.5797
i20_01_1.bmp,1,5.7714,0.9807,0.9832,0.7364,34.6151,36.9962
i20_01_2.bmp,1,5.1714,0.9649,0.9698,0.6355,31.6536,33.86
i20_01_3.bmp,1,4.7059,0.9378,0.9445,0.5303,28.6035,30.5464
i20_01_4.bmp,1,4.2571,0.8959,0.9005,0.4312,25.6206,27.3519
i20_02_1.bmp,2,6.3429,0.9938,0.9937,0.8901,38.5564,40.2238
i20_02_2.bmp,2,5.9429,0.9879,0.9893,0.8216,35.4097,36.9087
i20_02_3.bmp,2,5.7941,0.9778,0.9812,0.7288,32.2682,33.5854
i20_02_4.bmp,2,5.0,0.9597,0.9659,0.6283,29.1087,30.2601
i20_03_1.bmp,3,4.4571,0.9587,0.9435,0.5834,30.9208,32.7243
i20_03_2.bmp,3,3.9429,0.9253,0.898,0.4764,27.8869,29.4645
i20_03_3.bmp,3,3.6765,0.8734,0.8278,0.3763,24.9703,26.3533
i20_03_4.bmp,3,3.0882,0.8003,0.7281,0.2937,22.0753,23.3145
i20_04_1.bmp,4,5.9706,0.9974,0.9983,0.8647,38.6047,46.948
i20_04_2.bmp,4,5.4857,0.9951,0.9973,0.7908,35.3464,42.4272
i20_04_3.bmp,4,4.8125,0.9907,0.9951,0.6956,31.969,37.5275
i20_04_4.bmp,4,4.1176,0.9827,0.99,0.5825,28.5202,32.63
i20_05_1.bmp,5,5.9697,0.9863,0.9919,0.8556,36.964,38.8362
i20_05_2.bmp,5,5.3429,0.9632,0.9788,0.7123,31.9115,33.5869
i20_05_3.bmp,5,4.6765,0.9112,0.9394,0.5343,26.693,28.1327
i20_05_4.bmp,5,3.5429,0.8107,0.8318,0.3583,21.1549,22.3123
i20_06_1.bmp,6,4.8438,0.9305,0.92,0.664,29.5092,32.9808
i20_06_2.bmp,6,4.0882,0.8694,0.8496,0.5488,26.3229,29.3988
i20_06_3.bmp,6,4.0294,0.7893,0.75,0.429,23.0127,25.5783
i20_06_4.bmp,6,3.2059,0.7025,0.6422,0.3267,19.8988,21.9607
i20_07_1.bmp,7,5.0571,0.9867,0.9831,0.6802,27.4452,27.8401
i20_07_2.bmp,7,4.5588,0.9725,0.9651,0.5964,29.7339,31.2362
i20_07_3.bmp,7,3.697,0.9578,0.9427,0.5006,26.5772,27.7959
i20_07_4.bmp,7,3.2941,0.9407,0.918,0.3954,19.0881,19.4707
i20_08_1.bmp,8,5.5714,0.9955,0.9954,0.7096,30.2562,33.0035
i20_08_2.bmp,8,4.6286,0.9855,0.9845,0.5098,25.3502,27.2852
i20_08_3.bmp,8,3.6571,0.9591,0.9459,0.3017,21.2435,22.4696
i20_08_4.bmp,8,2.6571,0.9013,0.8581,0.1404,17.9089,18.6681
i20_09_1.bmp,9,6.6,0.992,0.9897,0.6533,33.5308,35.2689
i20_09_2.bmp,9,5.7059,0.9841,0.9794,0.5111,28.6539,29.8345
i20_09_3.bmp,9,4.0286,0.9591,0.9474,0.3315,22.5273,23.2662
i20_09_4.bmp,9,2.0882,0.8841,0.8579,0.1849,15.8475,16.1599
i20_10_1.bmp,10,6.0571,0.9946,0.9951,0.7548,39.7565,46.7281
i20_10_2.bmp,10,5.3714,0.9868,0.9863,0.5348,33.7071,39.0011
i20_10_3.bmp,10,3.6176,0.9647,0.954,0.3074,27.3092,30.3783
i20_10_4.bmp,10,2.2353,0.9329,0.9054,0.1984,23.4583,25.3398
i20_11_1.bmp,11,5.0571,0.9881,0.9825,0.4604,31.0532,35.6306
i20_11_2.bmp,11,3.3333,0.9592,0.9362,0.2554,25.948,28.3288
i20_11_3.bmp,11,1.8571,0.9103,0.8626,0.1272,21.2848,22.6422
i20_11_4.bmp,11,0.1875,0.8021,0.7431,0.0507,17.6371,18.3511
i20_12_1.bmp,12,5.4412,0.9997,0.998,0.9778,48.866,51.9024
i20_12_2.bmp,12,4.6571,0.9684,0.9582,0.5408,26.3153,28.4933
i20_12_3.bmp,12,4.1176,0.929,0.8977,0.4251,20.7886,21.6821
i20_12_4.bmp,12,2.4571,0.8435,0.7869,0.1428,17.025,17.8634
i20_13_1.bmp,13,4.1143,0.9324,0.9173,0.528,28.1048,30.1324
i20_13_2.bmp,13,4.3143,0.985,0.9809,0.7159,29.1339,32.2776
i20_13_3.bmp,13,2.9394,0.8668,0.7969,0.3112,20.5199,22.1084
i20_13_4.bmp,13,2.4412,0.6596,0.5404,0.2414,16.716,17.4011
i20_14_1.bmp,14,6.1176,0.99,0.9862,0.7096,27.245,29.049
i20_14_2.bmp,14,4.8485,0.9687,0.9573,0.5478,23.4644,24.6308
i20_14_3.bmp,14,3.8,0.9538,0.9381,0.4755,22.1356,23.1243
i20_14_4.bmp,14,3.2727,0.9297,0.9078,0.3711,20.024,20.8628
i20_15_1.bmp,15,2.5429,0.8787,0.8995,0.6667,18.2571,18.569
i20_15_2.bmp,15,3.3824,0.9303,0.9454,0.8058,19.7613,20.0311
i20_15_3.bmp,15,3.7941,0.9583,0.9713,0.9054,20.869,21.0531
i20_15_4.bmp,15,4.4286,0.9751,0.985,0.9452,21.429,21.5625
i20_16_1.bmp,16,6.5882,0.9984,0.9954,0.9611,27.9982,28.0404
i20_16_2.bmp,16,6.5,0.9981,0.9796,0.9705,19.3749,19.3791
i20_16_3.bmp,16,6.5143,0.9913,0.9755,0.8771,18.7085,18.7404
i20_16_4.bmp,16,5.6286,0.9824,0.9256,0.8344,13.5291,13.5403
i20_17_1.bmp,17,6.8857,0.9907,0.9719,0.9385,23.5771,23.9256
i20_17_2.bmp,17,5.3714,0.9773,0.964,0.8456,18.4985,18.6648
i20_17_3.bmp,17,6.6765,0.9622,0.9162,0.7521,18.2822,18.5534
i20_17_4.bmp,17,4.0,0.8902,0.878,0.658,12.4786,12.5793
i21_01_1.bmp,1,5.2813,0.9775,0.98,0.7316,34.8243,39.4628
i21_01_2.bmp,1,5.0,0.9582,0.9623,0.6225,31.7927,35.9586
i21_01_3.bmp,1,4.2581,0.9271,0.9303,0.516,28.7945,32.4674
i21_01_4.bmp,1,3.9688,0.8807,0.8785,0.4175,25.8286,29.0892
i21_02_1.bmp,2,6.3438,0.9939,0.9939,0.8935,40.6977,46.186
i21_02_2.bmp,2,5.8438,0.9878,0.989,0.8211,37.6412,42.5873
i21_02_3.bmp,2,5.1333,0.9773,0.9799,0.7279,34.6966,39.1811
i21_02_4.bmp,2,4.6875,0.9579,0.9619,0.6224,31.6273,35.5832
i21_03_1.bmp,3,4.375,0.9471,0.93,0.5749,29.9846,32.4263
i21_03_2.bmp,3,3.8387,0.9066,0.8774,0.4696,27.0354,29.0976
i21_03_3.bmp,3,3.4333,0.8443,0.7958,0.3687,23.9731,25.7146
i21_03_4.bmp,3,3.0645,0.7608,0.6923,0.2792,20.8705,22.3656
i21_04_1.bmp,4,6.1875,0.9981,0.9986,0.9082,39.3936,52.297
i21_04_2.bmp,4,5.9375,0.9964,0.9981,0.852,36.3553,48.118
i21_04_3.bmp,4,5.5333,0.9929,0.9971,0.7731,33.1734,42.9802
i21_04_4.bmp,4,4.9063,0.9867,0.9948,0.6785,30.0688,37.7825
i21_05_1.bmp,5,6.0,0.986,0.9927,0.8537,39.1501,45.8544
i21_05_2.bmp,5,5.4375,0.9629,0.98,0.7066,34.2018,40.2098
i21_05_3.bmp,5,4.6774,0.9134,0.9433,0.5272,29.1472,34.365
i21_05_4.bmp,5,3.4333,0.8221,0.8489,0.3488,23.8462,28.0071
i21_06_1.bmp,6,4.9333,0.9822,0.9832,0.7442,34.6864,39.1901
i21_06_2.bmp,6,4.5161,0.9674,0.9677,0.6235,31.7323,35.9487
i21_06_3.bmp,6,4.2258,0.9381,0.9371,0.5011,28.3925,31.9156
i21_06_4.bmp,6,3.9355,0.8922,0.8887,0.39,25.3289,28.2943
i21_07_1.bmp,7,4.75,0.9729,0.9795,0.7339,32.2574,34.1748
i21_07_2.bmp,7,4.1563,0.9626,0.9655,0.6163,30.136,32.1501
i21_07_3.bmp,7,3.4375,0.9354,0.9381,0.5062,25.8057,27.1664
i21_07_4.bmp,7,3.1563,0.9132,0.9122,0.3648,23.3719,24.7733
i21_08_1.bmp,8,5.0645,0.9916,0.9919,0.6798,30.0925,34.9654
i21_08_2.bmp,8,4.1875,0.9721,0.9705,0.4654,25.1241,28.1551
i21_08_3.bmp,8,3.4,0.9206,0.897,0.2514,21.0055,22.796
i21_08_4.bmp,8,2.4063,0.8167,0.7443,0.0914,17.8955,18.9774
i21_09_1.bmp,9,6.25,0.9869,0.9854,0.5936,33.5067,38.7024
i21_09_2.bmp,9,5.6333,0.9714,0.9662,0.4236,28.816,32.5951
i21_09_3.bmp,9,3.6774,0.9253,0.9047,0.2471,23.6465,25.9448
i21_09_4.bmp,9,2.375,0.7951,0.7488,0.1065,18.7334,19.858
i21_10_1.bmp,10,6.0,0.9914,0.9931,0.7333,37.6083,45.9136
i21_10_2.bmp,10,4.8065,0.9782,0.9792,0.4979,31.3602,38.1593
i21_10_3.bmp,10,3.25,0.9344,0.9279,0.2703,24.7627,28.0585
i21_10_4.bmp,10,1.3226,0.8666,0.8418,0.1504,20.7757,22.5602
i21_11_1.bmp,11,5.5938,0.9904,0.9877,0.5635,32.4007,39.2376
i21_11_2.bmp,11,4.7667,0.9792,0.9693,0.3958,27.9606,32.5786
i21_11_3.bmp,11,3.0645,0.9192,0.8846,0.1748,22.5375,24.707
i21_11_4.bmp,11,0.4516,0.7558,0.6797,0.0434,17.9146,18.9896
i21_12_1.bmp,12,5.0938,0.9944,0.9902,0.9147,31.1089,33.1562
i21_12_2.bmp,12,6.2903,0.9783,0.9669,0.7742,26.3447,28.285
i21_12_3.bmp,12,6.0968,0.9487,0.9284,0.5544,23.1349,25.1141
i21_12_4.bmp,12,1.9667,0.7709,0.681,0.1497,15.4022,15.919
i21_13_1.bmp,13,4.2188,0.9562,0.9468,0.56,27.4106,29.3084
i21_13_2.bmp,13,3.7188,0.8855,0.8383,0.4779,24.7125,26.6511
i21_13_3.bmp,13,3.0,0.7905,0.7178,0.304,19.9706,21.0201
i21_13_4.bmp,13,2.9063,0.7894,0.6808,0.2711,19.3424,21.085
i21_14_1.bmp,14,6.3226,0.9878,0.9822,0.7509,26.6286,28.5469
i21_14_2.bmp,14,6.2188,0.9612,0.9431,0.6241,22.6381,23.8435
i21_14_3.bmp,14,4.2667,0.936,0.9115,0.5313,20.4888,21.4232
i21_14_4.bmp,14,3.7188,0.8879,0.8665,0.4481,18.5141,19.1974
i21_15_1.bmp,15,2.1613,0.8957,0.9115,0.7405,20.0239,20.4828
i21_15_2.bmp,15,3.125,0.9381,0.9531,0.8553,21.5165,21.8981
i21_15_3.bmp,15,3.2581,0.9561,0.9724,0.9195,22.2677,22.4916
i21_15_4.bmp,15,3.9032,0.969,0.9838,0.9556,22.9421,23.1228
i21_16_1.bmp,16,6.3438,0.9992,0.9951,0.9839,25.4316,25.4561
i21_16_2.bmp,16,5.8667,0.9977,0.9825,0.9958,19.3156,19.317
i21_16_3.bmp,16,5.6452,0.9932,0.9737,0.939,15.9196,15.935
i21_16_4.bmp,16,5.3125,0.987,0.9235,0.898,13.3814,13.3887
i21_17_1.bmp,17,6.7097,0.9893,0.9863,1.0435,27.0549,28.25
i21_17_2.bmp,17,4.9677,0.9721,0.9728,0.8483,23.7934,24.5737
i21_17_3.bmp,17,6.1563,0.9603,0.9507,0.9945,20.6467,21.4714
i21_17_4.bmp,17,4.2903,0.8647,0.8806,0.6615,17.7769,18.2502
i22_01_1.bmp,1,5.6667,0.9803,0.9808,0.7142,34.8414,39.4589
i22_01_2.bmp,1,5.1034,0.9629,0.9635,0.5993,31.8133,35.7383
i22_01_3.bmp,1,4.8333,0.9337,0.9317,0.4813,28.7852,32.1461
i22_01_4.bmp,1,4.2581,0.8873,0.8776,0.3771,25.7961,28.7537
i22_02_1.bmp,2,5.9677,0.9947,0.9942,0.8848,40.6411,46.6833
i22_02_2.bmp,2,5.8065,0.9896,0.9895,0.8103,37.6766,42.9267
i22_02_3.bmp,2,5.3667,0.98,0.98,0.7082,34.6542,39.0564
i22_02_4.bmp,2,4.9667,0.9627,0.9633,0.5952,31.682,35.4727
i22_03_1.bmp,3,4.2414,0.954,0.9296,0.5453,29.9998,32.1284
i22_03_2.bmp,3,3.9355,0.9165,0.8741,0.4299,26.9561,28.7617
i22_03_3.bmp,3,3.2667,0.8566,0.7879,0.3308,23.9471,25.4692
i22_03_4.bmp,3,2.8,0.772,0.6714,0.245,20.9627,22.3128
i22_04_1.bmp,4,6.0968,0.9967,0.9982,0.9123,39.45,50.7456
i22_04_2.bmp,4,5.6,0.9936,0.9973,0.8567,36.3071,46.0513
i22_04_3.bmp,4,5.5333,0.9876,0.9954,0.7806,33.1335,41.1024
i22_04_4.bmp,4,4.7,0.9767,0.9914,0.6845,29.9349,36.1211
i22_05_1.bmp,5,5.7931,0.9876,0.9931,0.845,39.2504,47.1076
i22_05_2.bmp,5,5.2,0.9663,0.9809,0.6882,34.3015,40.7715
i22_05_3.bmp,5,4.5806,0.918,0.9451,0.4974,29.2353,34.4344
i22_05_4.bmp,5,3.5333,0.8232,0.8492,0.3136,23.9783,27.9725
i22_06_1.bmp,6,4.5667,0.9793,0.9753,0.7084,33.2384,36.7447
i22_06_2.bmp,6,4.3,0.959,0.9526,0.5651,30.1412,33.3993
i22_06_3.bmp,6,4.0667,0.925,0.9133,0.4431,27.1505,30.0695
i22_06_4.bmp,6,3.3667,0.8708,0.8485,0.3288,24.0541,26.5459
i22_07_1.bmp,7,5.4194,0.9782,0.9765,0.6888,32.5378,34.7474
i22_07_2.bmp,7,4.6129,0.959,0.9542,0.5584,29.6166,31.6155
i22_07_3.bmp,7,4.0,0.9336,0.9269,0.4594,26.1287,27.4536
i22_07_4.bmp,7,2.8,0.8766,0.8682,0.3454,23.1216,24.1488
i22_08_1.bmp,8,5.4194,0.9895,0.9905,0.7257,31.5268,35.4047
i22_08_2.bmp,8,4.5161,0.9656,0.9659,0.5112,26.5898,29.1494
i22_08_3.bmp,8,3.6,0.9067,0.8861,0.2749,22.4883,24.0385
i22_08_4.bmp,8,2.2759,0.8013,0.7379,0.1017,19.4569,20.4006
i22_09_1.bmp,9,6.0323,0.9752,0.9718,0.5485,32.7051,36.517
i22_09_2.bmp,9,4.9355,0.9437,0.9316,0.3723,28.6527,31.323
i22_09_3.bmp,9,3.5,0.8821,0.8509,0.2125,24.8471,26.6689
i22_09_4.bmp,9,2.0968,0.7689,0.7241,0.0963,20.1533,21.0603
i22_10_1.bmp,10,6.0645,0.9881,0.9909,0.7316,37.3241,45.4417
i22_10_2.bmp,10,5.5484,0.9668,0.967,0.4805,31.2879,36.2081
i22_10_3.bmp,10,3.4839,0.9014,0.8775,0.231,25.2374,27.4915
i22_10_4.bmp,10,1.4194,0.8185,0.7681,0.1196,22.028,23.4077
i22_11_1.bmp,11,5.8333,0.9844,0.9802,0.5368,31.9742,36.8416
i22_11_2.bmp,11,4.5161,0.9442,0.9249,0.3032,27.1292,29.9547
i22_11_3.bmp,11,2.0333,0.8104,0.75,0.0898,22.0981,23.5062
i22_11_4.bmp,11,0.0345,0.5956,0.5576,0.0165,18.0771,18.7898
i22_12_1.bmp,12,6.1613,0.9723,0.9625,0.7871,29.4394,31.1114
i22_12_2.bmp,12,5.9333,0.957,0.9436,0.6885,26.9257,28.7722
i22_12_3.bmp,12,3.9355,0.8977,0.8736,0.3753,23.2277,25.2054
i22_12_4.bmp,12,2.6667,0.6757,0.5892,0.1081,16.8211,17.6737
i22_13_1.bmp,13,4.5161,0.9557,0.9287,0.5641,29.2997,31.5904
i22_13_2.bmp,13,3.9667,0.895,0.8488,0.416,25.6728,27.7038
i22_13_3.bmp,13,3.1333,0.7999,0.6981,0.2459,21.6954,23.1662
i22_13_4.bmp,13,2.6667,0.7018,0.5913,0.2509,19.8209,20.9368
i22_14_1.bmp,14,6.2414,0.9865,0.9829,0.8211,28.7877,30.639
i22_14_2.bmp,14,5.7419,0.9607,0.9492,0.6975,25.1231,26.4315
i22_14_3.bmp,14,4.6897,0.9197,0.9078,0.5782,22.6376,23.6714
i22_14_4.bmp,14,4.3548,0.8798,0.8664,0.5126,20.9649,21.8023
i22_15_1.bmp,15,2.7742,0.8965,0.9191,0.7845,21.9686,22.4516
i22_15_2.bmp,15,3.2333,0.9307,0.9524,0.8848,23.0038,23.3879
i22_15_3.bmp,15,4.0,0.9561,0.9713,0.9407,23.603,23.8488
i22_15_4.bmp,15,4.4839,0.9685,0.9833,0.9686,24.4402,24.6216
i22_16_1.bmp,16,6.0,0.9992,0.9949,0.9865,25.4854,25.5043
i22_16_2.bmp,16,6.0645,0.9964,0.9805,0.9964,19.3072,19.3086
i22_16_3.bmp,16,4.8,0.9922,0.9705,0.9304,15.9782,15.9913
i22_16_4.bmp,16,5.129,0.981,0.9109,0.97,13.315,13.317
i22_17_1.bmp,17,7.129,0.9886,0.9871,1.0446,27.0531,27.6501
i22_17_2.bmp,17,4.5484,0.9701,0.9728,0.8386,23.6215,24.0555
i22_17_3.bmp,17,6.2903,0.9554,0.9495,1.0561,20.4953,20.9119
i22_17_4.bmp,17,3.4333,0.857,0.8812,0.6403,17.5995,17.8665
i23_01_1.bmp,1,5.7188,0.9699,0.9734,0.687,34.8175,38.3206
i23_01_2.bmp,1,5.1935,0.9448,0.9506,0.5681,31.7763,34.9186
i23_01_3.bmp,1,4.7742,0.9048,0.9104,0.4649,28.8519,31.7203
i23_01_4.bmp,1,4.0645,0.8448,0.8401,0.3581,25.7893,28.3791
i23_02_1.bmp,2,6.2581,0.9917,0.9918,0.8705,40.6279,44.9803
i23_02_2.bmp,2,6.0,0.9838,0.9855,0.7875,37.6702,41.4767
i23_02_3.bmp,2,5.6452,0.9697,0.9733,0.6839,34.6672,38.0276
i23_02_4.bmp,2,4.9677,0.9441,0.9494,0.5681,31.6063,34.6232
i23_03_1.bmp,3,4.3667,0.9351,0.9078,0.5118,30.0375,31.7077
i23_03_2.bmp,3,4.129,0.8845,0.8369,0.4001,27.0053,28.4802
i23_03_3.bmp,3,3.5625,0.8095,0.7323,0.3001,23.9575,25.2969
i23_03_4.bmp,3,3.0938,0.7125,0.603,0.2271,20.9694,22.203
i23_04_1.bmp,4,6.0313,0.9973,0.998,0.8894,38.9691,48.9057
i23_04_2.bmp,4,5.7742,0.9948,0.9973,0.8343,35.6582,43.2604
i23_04_3.bmp,4,5.2258,0.9899,0.9955,0.7614,32.2376,37.7135
i23_04_4.bmp,4,4.5806,0.9807,0.9915,0.6719,28.9895,32.965
i23_05_1.bmp,5,5.7097,0.9806,0.9904,0.8312,39.2338,45.3118
i23_05_2.bmp,5,5.6563,0.9492,0.9741,0.6681,34.2983,39.5256
i23_05_3.bmp,5,4.8065,0.8838,0.9267,0.4802,29.2561,33.7204
i23_05_4.bmp,5,4.0667,0.7694,0.8065,0.3087,23.9802,27.5838
i23_06_1.bmp,6,4.9688,0.9748,0.9743,0.6897,34.3136,37.6153
i23_06_2.bmp,6,4.5313,0.9514,0.9512,0.5572,31.2515,34.2703
i23_06_3.bmp,6,4.1613,0.9116,0.9079,0.4343,28.1176,30.7994
i23_06_4.bmp,6,3.6875,0.8475,0.8366,0.3279,24.9457,27.2409
i23_07_1.bmp,7,4.4375,0.9599,0.955,0.6315,31.3332,32.6784
i23_07_2.bmp,7,3.9677,0.9312,0.9252,0.5181,27.6835,28.6253
i23_07_3.bmp,7,3.6129,0.8977,0.8921,0.3955,24.4958,25.2015
i23_07_4.bmp,7,2.5161,0.8491,0.8377,0.3026,21.3093,21.8745
i23_08_1.bmp,8,5.4688,0.9965,0.9956,0.77,33.6776,37.2841
i23_08_2.bmp,8,4.9375,0.9884,0.9862,0.5883,28.5211,30.9989
i23_08_3.bmp,8,4.0,0.9653,0.9525,0.3791,24.0124,25.5009
i23_08_4.bmp,8,2.7,0.9136,0.8817,0.2016,20.6555,21.5522
i23_09_1.bmp,9,6.5313,0.9869,0.9836,0.5609,35.9644,39.3655
i23_09_2.bmp,9,5.6875,0.9758,0.9688,0.4241,32.217,34.8521
i23_09_3.bmp,9,4.5161,0.953,0.9397,0.2873,27.7864,29.6227
i23_09_4.bmp,9,2.8438,0.8787,0.8581,0.1599,21.2364,21.9719
i23_10_1.bmp,10,6.3438,0.9924,0.9919,0.72,39.5724,45.0051
i23_10_2.bmp,10,5.25,0.9804,0.9765,0.4898,33.8108,37.4387
i23_10_3.bmp,10,3.8065,0.9392,0.9198,0.2583,27.5045,29.493
i23_10_4.bmp,10,2.25,0.8703,0.8344,0.1571,23.3407,24.4796
i23_11_1.bmp,11,4.5806,0.9687,0.9553,0.3174,29.5614,32.2712
i23_11_2.bmp,11,3.3226,0.9311,0.9038,0.1817,25.5325,27.1412
i23_11_3.bmp,11,2.129,0.8729,0.8356,0.1039,21.8267,22.8538
i23_11_4.bmp,11,0.1935,0.7461,0.7313,0.0426,18.6509,19.2415
i23_12_1.bmp,12,5.9355,0.9964,0.9952,0.9042,43.4608,47.2258
i23_12_2.bmp,12,3.7188,0.939,0.9179,0.5326,23.9804,25.0558
i23_12_3.bmp,12,2.7419,0.8889,0.8475,0.37,20.4236,21.2294
i23_12_4.bmp,12,1.5938,0.8233,0.7555,0.1983,17.5663,18.3076
i23_13_1.bmp,13,4.5313,0.9345,0.9238,0.5487,29.0294,31.0769
i23_13_2.bmp,13,3.625,0.8664,0.8128,0.3046,25.3272,26.9362
i23_13_3.bmp,13,3.129,0.7084,0.5985,0.2602,19.7386,20.4493
i23_13_4.bmp,13,3.0,0.6477,0.5306,0.2469,18.7474,19.8713
i23_14_1.bmp,14,6.0313,0.9937,0.9913,0.7727,29.9235,31.8598
i23_14_2.bmp,14,4.4,0.9841,0.9769,0.693,27.592,28.8894
i23_14_3.bmp,14,5.125,0.9708,0.9586,0.5792,24.7248,25.877
i23_14_4.bmp,14,3.6563,0.9522,0.9334,0.4954,22.8717,23.7533
i23_15_1.bmp,15,2.4375,0.8923,0.9071,0.6719,19.4821,19.8421
i23_15_2.bmp,15,3.2188,0.9355,0.9494,0.8011,21.0403,21.3807
i23_15_3.bmp,15,3.9063,0.9524,0.9724,0.8799,22.0529,22.3614
i23_15_4.bmp,15,4.2581,0.9586,0.9822,0.9578,23.3476,23.4867
i23_16_1.bmp,16,6.2813,0.999,0.9942,0.9769,25.4355,25.4508
i23_16_2.bmp,16,6.4688,0.9981,0.9824,0.9964,19.3408,19.3418
i23_16_3.bmp,16,5.375,0.99,0.9695,0.8903,15.9968,16.0071
i23_16_4.bmp,16,6.6875,0.9906,0.922,0.9656,13.3587,13.36
i23_17_1.bmp,17,6.9688,0.9884,0.9865,1.0297,26.0437,26.4719
i23_17_2.bmp,17,5.0667,0.9731,0.9777,0.8199,23.1131,23.4237
i23_17_3.bmp,17,6.9688,0.9564,0.9502,0.9934,19.8748,20.1697
i23_17_4.bmp,17,4.0,0.8703,0.9065,0.6088,17.0947,17.2807
i24_01_1.bmp,1,5.1875,0.9841,0.9853,0.7215,34.8528,40.0882
i24_01_2.bmp,1,4.9677,0.9697,0.9715,0.605,31.7858,36.2298
i24_01_3.bmp,1,4.7742,0.9456,0.9471,0.4921,28.8047,32.5937
i24_01_4.bmp,1,4.2188,0.9066,0.9018,0.3851,25.7287,28.9685
i24_02_1.bmp,2,6.0,0.9957,0.9956,0.8886,40.6839,47.5387
i24_02_2.bmp,2,5.6875,0.9914,0.9918,0.812,37.6197,43.514
i24_02_3.bmp,2,5.4688,0.9838,0.985,0.7158,34.668,39.7553
i24_02_4.bmp,2,4.7742,0.9697,0.9716,0.6054,31.654,35.9938
i24_03_1.bmp,3,4.625,0.9649,0.9455,0.5524,29.9756,32.409
i24_03_2.bmp,3,4.0,0.9338,0.8986,0.436,26.9115,28.8868
i24_03_3.bmp,3,3.5313,0.8859,0.8283,0.3376,23.9833,25.6687
i24_03_4.bmp,3,2.8438,0.8098,0.7221,0.2476,20.965,22.4069
i24_04_1.bmp,4,6.125,0.9975,0.9986,0.9264,38.4429,45.5343
i24_04_2.bmp,4,6.0,0.9951,0.998,0.8818,35.3605,41.5245
i24_04_3.bmp,4,5.4333,0.9905,0.9967,0.8173,32.1786,37.3898
i24_04_4.bmp,4,4.9032,0.9819,0.9939,0.7333,29.0795,33.4194
i24_05_1.bmp,5,6.0968,0.9894,0.9947,0.8495,39.2141,47.8052
i24_05_2.bmp,5,5.1613,0.9715,0.9856,0.6965,34.2822,41.5038
i24_05_3.bmp,5,4.3548,0.9307,0.9581,0.5096,29.2446,35.1044
i24_05_4.bmp,5,3.5938,0.8486,0.8816,0.3277,24.0389,28.5339
i24_06_1.bmp,6,4.5806,0.9848,0.983,0.7151,33.3937,37.2829
i24_06_2.bmp,6,4.5938,0.9701,0.9673,0.5913,30.55,34.0934
i24_06_3.bmp,6,4.0323,0.9444,0.9372,0.4605,27.3542,30.5419
i24_06_4.bmp,6,3.4063,0.8981,0.8847,0.3397,24.1904,26.875
i24_07_1.bmp,7,4.8333,0.9796,0.9766,0.6769,32.1839,34.6504
i24_07_2.bmp,7,3.8387,0.9561,0.9494,0.5589,28.3336,30.187
i24_07_3.bmp,7,3.125,0.9196,0.9117,0.4404,24.8264,26.1008
i24_07_4.bmp,7,2.7333,0.8166,0.8228,0.3439,20.7246,21.5355
i24_08_1.bmp,8,5.4063,0.9918,0.9914,0.7327,31.233,36.1701
i24_08_2.bmp,8,4.6875,0.972,0.9678,0.5203,26.2807,29.292
i24_08_3.bmp,8,3.5313,0.9182,0.889,0.2868,22.1522,23.907
i24_08_4.bmp,8,2.75,0.8103,0.7289,0.1077,19.0756,20.1311
i24_09_1.bmp,9,5.5517,0.9841,0.9806,0.6115,33.2727,37.709
i24_09_2.bmp,9,4.7742,0.9621,0.9512,0.4303,28.8124,31.8512
i24_09_3.bmp,9,3.1935,0.9084,0.8755,0.2459,24.2546,26.2476
i24_09_4.bmp,9,1.8387,0.7819,0.7164,0.1035,19.5393,20.5637
i24_10_1.bmp,10,5.8667,0.9914,0.9932,0.759,37.2078,45.0901
i24_10_2.bmp,10,5.3438,0.9749,0.9736,0.5124,31.0306,36.2975
i24_10_3.bmp,10,3.2813,0.9209,0.8987,0.2601,24.8279,27.3406
i24_10_4.bmp,10,1.2581,0.8369,0.7836,0.1369,21.0888,22.5157
i24_11_1.bmp,11,5.3226,0.9884,0.9837,0.5636,31.7327,37.0342
i24_11_2.bmp,11,4.2,0.965,0.9472,0.3629,27.2093,30.5935
i24_11_3.bmp,11,2.4516,0.8621,0.7998,0.1306,22.085,23.6745
i24_11_4.bmp,11,0.1613,0.6229,0.5454,0.024,17.8627,18.6725
i24_12_1.bmp,12,6.4194,0.9907,0.9845,0.8937,29.009,31.2663
i24_12_2.bmp,12,5.9375,0.9721,0.9614,0.7212,26.9417,29.2037
i24_12_3.bmp,12,3.3226,0.907,0.8848,0.3801,23.377,25.3839
i24_12_4.bmp,12,2.6875,0.7053,0.5801,0.115,16.3835,17.0722
i24_13_1.bmp,13,4.0,0.9017,0.8494,0.6366,25.818,26.7237
i24_13_2.bmp,13,3.5625,0.858,0.7845,0.5001,23.4781,24.393
i24_13_3.bmp,13,3.0,0.7631,0.6581,0.2296,20.3425,21.4281
i24_13_4.bmp,13,3.129,0.8285,0.7206,0.4022,17.7067,18.9304
i24_14_1.bmp,14,6.5313,0.9896,0.9838,0.8099,27.5661,29.5024
i24_14_2.bmp,14,5.3871,0.9692,0.9516,0.7079,23.8785,25.1376
i24_14_3.bmp,14,5.0625,0.9451,0.9215,0.6231,21.9015,22.9441
i24_14_4.bmp,14,4.5,0.9077,0.8798,0.5418,20.0908,20.8718
i24_15_1.bmp,15,3.2813,0.8918,0.9188,0.8285,23.0568,23.3533
i24_15_2.bmp,15,4.2188,0.9212,0.9537,0.9021,23.2249,23.4372
i24_15_3.bmp,15,4.0645,0.9361,0.9712,0.9386,22.8256,22.996
i24_15_4.bmp,15,4.0313,0.9439,0.9831,0.9658,22.7428,22.8969
i24_16_1.bmp,16,6.0323,0.9993,0.995,0.9923,25.3901,25.4151
i24_16_2.bmp,16,6.0625,0.9962,0.9792,0.9999,19.3068,19.3077
i24_16_3.bmp,16,5.3548,0.9945,0.9706,0.9657,15.8649,15.8802
i24_16_4.bmp,16,5.6563,0.9803,0.9025,0.9925,13.2965,13.2972
i24_17_1.bmp,17,7.2188,0.9864,0.9866,1.072,28.6902,29.8596
i24_17_2.bmp,17,5.2258,0.9679,0.9707,0.841,25.2965,26.0933
i24_17_3.bmp,17,7.2813,0.9446,0.9456,1.1426,21.7821,22.5493
i24_17_4.bmp,17,3.7742,0.8459,0.868,0.6456,19.2743,19.7607
i25_01_1.bmp,1,5.0769,0.9842,0.9858,0.8113,34.7952,39.7036
i25_01_2.bmp,1,5.0,0.9711,0.9724,0.721,31.7893,36.3536
i25_01_3.bmp,1,4.36,0.9506,0.9499,0.625,28.7988,33.038
i25_01_4.bmp,1,3.88,0.9197,0.9108,0.5231,25.8068,29.6223
i25_02_1.bmp,2,5.8462,0.9954,0.9955,0.9226,39.2642,44.1644
i25_02_2.bmp,2,5.9231,0.9911,0.9918,0.869,36.3009,40.9883
i25_02_3.bmp,2,5.125,0.9835,0.9852,0.7967,33.3697,37.8417
i25_02_4.bmp,2,4.76,0.97,0.9715,0.7022,30.3222,34.3815
i25_03_1.bmp,3,4.4,0.9652,0.9497,0.6891,30.487,33.5633
i25_03_2.bmp,3,3.64,0.9374,0.9094,0.5952,27.4966,30.1751
i25_03_3.bmp,3,3.3846,0.8984,0.8539,0.4998,24.5677,26.9311
i25_03_4.bmp,3,2.5385,0.8425,0.7776,0.4087,21.5851,23.6127
i25_04_1.bmp,4,6.1538,0.9978,0.9984,0.8906,34.9981,42.4671
i25_04_2.bmp,4,6.1923,0.9957,0.9971,0.8314,31.9724,38.4033
i25_04_3.bmp,4,5.88,0.9916,0.9944,0.7527,28.8175,34.0878
i25_04_4.bmp,4,5.5769,0.9838,0.9885,0.6574,25.598,29.7708
i25_05_1.bmp,5,5.9615,0.9896,0.9945,0.8892,38.0216,43.9569
i25_05_2.bmp,5,5.0385,0.9737,0.9847,0.768,33.0882,38.6159
i25_05_3.bmp,5,4.1667,0.9405,0.9564,0.6047,27.9755,32.7466
i25_05_4.bmp,5,3.4231,0.8772,0.8817,0.4285,22.582,26.2146
i25_06_1.bmp,6,4.4,0.9824,0.9821,0.7269,32.8203,38.4261
i25_06_2.bmp,6,4.3462,0.9677,0.9654,0.6241,29.7236,34.8976
i25_06_3.bmp,6,4.12,0.9386,0.9332,0.5138,26.5256,30.9588
i25_06_4.bmp,6,3.5,0.9004,0.8851,0.4134,23.2845,26.9287
i25_07_1.bmp,7,3.5769,0.9753,0.9723,0.8637,30.3783,31.3737
i25_07_2.bmp,7,3.5385,0.967,0.9625,0.8395,27.7342,28.6842
i25_07_3.bmp,7,3.28,0.95,0.9478,0.7921,24.5249,25.2052
i25_07_4.bmp,7,2.8462,0.928,0.9226,0.7373,21.265,21.9878
i25_08_1.bmp,8,5.64,0.9829,0.9788,0.6499,20.8069,23.9239
i25_08_2.bmp,8,4.24,0.9455,0.9227,0.4696,16.6316,18.6031
i25_08_3.bmp,8,2.96,0.8613,0.7956,0.2731,13.7508,15.0893
i25_08_4.bmp,8,1.7692,0.7206,0.6357,0.1431,11.9231,12.895
i25_09_1.bmp,9,5.8462,0.9972,0.9955,0.8611,35.8101,40.7677
i25_09_2.bmp,9,5.16,0.9916,0.9881,0.7513,30.5715,34.5873
i25_09_3.bmp,9,3.6,0.9649,0.9525,0.559,23.4312,26.2524
i25_09_4.bmp,9,1.76,0.8613,0.8222,0.3341,16.6163,18.0209
i25_10_1.bmp,10,5.9615,0.9944,0.9959,0.7942,31.8761,35.3679
i25_10_2.bmp,10,4.8077,0.9831,0.9862,0.616,27.8335,31.9877
i25_10_3.bmp,10,2.8462,0.9517,0.9522,0.4148,23.2015,27.5169
i25_10_4.bmp,10,0.84,0.8698,0.8751,0.292,19.4086,22.021
i25_11_1.bmp,11,6.44,0.9986,0.9975,0.8637,36.6648,44.3008
i25_11_2.bmp,11,6.0769,0.9965,0.995,0.7543,32.4039,39.4329
i25_11_3.bmp,11,5.375,0.9945,0.9884,0.6834,29.9878,36.5655
i25_11_4.bmp,11,4.7692,0.9844,0.9738,0.5235,24.8624,29.5135
i25_12_1.bmp,12,5.6667,0.9956,0.996,0.9127,28.8655,31.0751
i25_12_2.bmp,12,4.52,0.9769,0.9708,0.8574,26.106,28.0661
i25_12_3.bmp,12,4.52,0.9668,0.9514,0.7744,23.0031,24.7694
i25_12_4.bmp,12,4.5385,0.9554,0.9386,0.7164,20.6154,22.3484
i25_13_1.bmp,13,6.0,0.994,0.994,0.8706,35.5639,41.4036
i25_13_2.bmp,13,3.92,0.9726,0.9583,0.6552,25.2693,28.179
i25_13_3.bmp,13,4.56,0.9889,0.9817,0.7595,28.1148,31.8765
i25_13_4.bmp,13,3.1923,0.9613,0.9336,0.6508,21.7969,24.1159
i25_14_1.bmp,14,4.68,0.9873,0.983,0.8361,22.7073,23.899
i25_14_2.bmp,14,4.0769,0.9784,0.9748,0.7997,21.7004,22.9317
i25_14_3.bmp,14,3.0,0.961,0.9536,0.747,20.7568,21.8274
i25_14_4.bmp,14,2.3462,0.9462,0.937,0.7131,19.133,20.1731
i25_15_1.bmp,15,2.36,0.8817,0.9147,0.7214,17.0146,17.7742
i25_15_2.bmp,15,3.3077,0.9165,0.9549,0.8567,19.7599,20.5403
i25_15_3.bmp,15,3.8846,0.9362,0.9745,0.9211,21.4914,22.1844
i25_15_4.bmp,15,4.28,0.9589,0.9867,0.9554,23.1836,23.745
i25_16_1.bmp,16,6.6538,0.999,0.9944,0.9901,25.775,25.8436
i25_16_2.bmp,16,6.2308,0.9907,0.9795,0.9027,20.2192,20.4626
i25_16_3.bmp,16,5.8462,0.9921,0.9671,0.9526,16.3511,16.4045
i25_16_4.bmp,16,4.6,0.9597,0.9211,0.7854,14.3848,14.5781
i25_17_1.bmp,17,7.24,0.9921,0.9888,0.9718,26.718,27.7799
i25_17_2.bmp,17,5.0,0.969,0.9642,0.882,20.3548,21.6227
i25_17_3.bmp,17,6.4615,0.9722,0.9664,0.9106,21.0011,21.7496
i25_17_4.bmp,17,3.5,0.8507,0.8499,0.7179,14.3906,15.1376
